Proyecto_Procesador/uP_tb.vcd
$date
	Mon Nov 16 12:18:29 2020
$end
$version
	Icarus Verilog
$end
$timescale
	1ps
$end
$scope module testbench $end
$var wire 1 ! z_flag $end
$var wire 8 " program_byte [7:0] $end
$var wire 1 # phase $end
$var wire 4 $ oprnd [3:0] $end
$var wire 4 % instr [3:0] $end
$var wire 4 & data_bus [3:0] $end
$var wire 1 ' c_flag $end
$var wire 12 ( address_RAM [11:0] $end
$var wire 4 ) accu [3:0] $end
$var wire 12 * PC [11:0] $end
$var wire 4 + FF_out [3:0] $end
$var reg 1 , clock $end
$var reg 4 - pushbuttons [3:0] $end
$var reg 1 . reset $end
$var integer 32 / nota [31:0] $end
$scope module uPmodule $end
$var wire 4 0 DATA_BUS [3:0] $end
$var wire 4 1 accu [3:0] $end
$var wire 12 2 address_RAM [11:0] $end
$var wire 1 ' c_flag $end
$var wire 1 , clock $end
$var wire 4 3 data_bus [3:0] $end
$var wire 4 4 instr [3:0] $end
$var wire 4 5 oprnd [3:0] $end
$var wire 8 6 program_byte [7:0] $end
$var wire 4 7 pushbuttons [3:0] $end
$var wire 1 . reset $end
$var wire 1 ! z_flag $end
$var wire 1 # phase $end
$var wire 1 8 Z_FLAG $end
$var wire 13 9 SC [12:0] $end
$var wire 8 : PROGRAM_BYTE [7:0] $end
$var wire 12 ; PC [11:0] $end
$var wire 4 < OPRND [3:0] $end
$var wire 4 = INSTR [3:0] $end
$var wire 4 > FF_out [3:0] $end
$var wire 7 ? DECODE_address [6:0] $end
$var wire 1 @ C_FLAG $end
$var wire 4 A ALU_OUT [3:0] $end
$var wire 1 B ALUZ $end
$var wire 1 C ALUC $end
$var wire 12 D ADDRESS_ram [11:0] $end
$var wire 4 E ACCUU [3:0] $end
$scope module FASE $end
$var wire 1 , clk $end
$var wire 1 . reset $end
$var reg 1 # Y $end
$upscope $end
$scope module acumulador $end
$var wire 1 , clk $end
$var wire 1 F enable $end
$var wire 1 . reset $end
$var wire 4 G D [3:0] $end
$var reg 4 H Y [3:0] $end
$upscope $end
$scope module banderas $end
$var wire 2 I D [1:0] $end
$var wire 1 , clk $end
$var wire 1 J enable $end
$var wire 1 . reset $end
$var reg 2 K Y [1:0] $end
$upscope $end
$scope module contador $end
$var wire 12 L Bload [11:0] $end
$var wire 1 M ENABLE $end
$var wire 1 N LOAD $end
$var wire 1 , clk $end
$var wire 1 . reset $end
$var reg 12 O Y [11:0] $end
$upscope $end
$scope module deALU $end
$var wire 4 P Y [3:0] $end
$var wire 1 Q enable $end
$var wire 4 R D [3:0] $end
$upscope $end
$scope module delfetch $end
$var wire 4 S D [3:0] $end
$var wire 4 T Y [3:0] $end
$var wire 1 U enable $end
$upscope $end
$scope module dicode $end
$var wire 7 V direccion [6:0] $end
$var wire 13 W senal [12:0] $end
$var reg 13 X datos [12:0] $end
$upscope $end
$scope module ftch $end
$var wire 1 , clk $end
$var wire 1 Y enable $end
$var wire 1 . reset $end
$var wire 8 Z D [7:0] $end
$var reg 8 [ Y [7:0] $end
$upscope $end
$scope module memram $end
$var wire 1 , clock $end
$var wire 1 \ cs $end
$var wire 4 ] datain [3:0] $end
$var wire 12 ^ direccion [11:0] $end
$var wire 1 _ we $end
$var reg 4 ` data_out [3:0] $end
$upscope $end
$scope module opcode $end
$var wire 12 a direccion [11:0] $end
$var wire 8 b salida [7:0] $end
$upscope $end
$scope module operaciones $end
$var wire 4 c A [3:0] $end
$var wire 4 d B [3:0] $end
$var wire 4 e Y [3:0] $end
$var wire 3 f selector [2:0] $end
$var reg 1 C C $end
$var reg 4 g RESalu [3:0] $end
$var reg 1 B ZERO $end
$var reg 5 h carry [4:0] $end
$upscope $end
$scope module pushes $end
$var wire 4 i D [3:0] $end
$var wire 4 j Y [3:0] $end
$var wire 1 k enable $end
$upscope $end
$scope module salida $end
$var wire 4 l D [3:0] $end
$var wire 1 , clk $end
$var wire 1 m enable $end
$var wire 1 . reset $end
$var reg 4 n Y [3:0] $end
$upscope $end
$upscope $end
$upscope $end
$enddefinitions $end
#0
$dumpvars
bx n
xm
bx l
xk
bx j
b110 i
bx h
bx g
bx f
bx e
bx d
bx c
bx b
bx a
bx `
x_
bx ^
bx ]
x\
bx [
bx Z
xY
bx X
bx W
bx V
xU
bx T
bx S
bx R
xQ
bx P
bx O
xN
xM
bx L
bx K
xJ
bx I
bx H
bx G
xF
bx E
bx D
xC
xB
bx A
x@
bx ?
bx >
bx =
bx <
bx ;
bx :
bx 9
x8
b110 7
bx 6
bx 5
bx 4
bx 3
bx 2
bx 1
bx 0
b0 /
0.
b110 -
0,
bx +
bx *
bx )
bx (
x'
bx &
bx %
bx $
x#
bx "
x!
$end
#2
0m
0F
b0 f
0k
1Q
0U
0_
0\
1M
0N
0J
b1000000001000 9
b1000000001000 W
b1000000001000 X
1Y
08
0@
b0 $
b0 5
b0 <
b0 S
b0 %
b0 4
b0 =
0'
0C
b1 I
1!
1B
b0 h
b0 A
b0 G
b0 R
b0 e
b0 g
b0 ?
b0 V
0#
b0 K
b1001111 (
b1001111 2
b1001111 D
b1001111 L
b1001111 ^
b1001111 "
b1001111 6
b1001111 :
b1001111 Z
b1001111 b
b0 *
b0 ;
b0 O
b0 a
b0 [
b0 )
b0 1
b0 E
b0 H
b0 c
b0 +
b0 >
b0 n
1.
#3
0.
#5
b0 I
0!
0B
b1111 A
b1111 G
b1111 R
b1111 e
b1111 g
1F
b10 f
0Q
1U
0M
1J
b11010000010 9
b11010000010 W
b11010000010 X
b1111 $
b1111 5
b1111 <
b1111 S
b100 %
b100 4
b100 =
0Y
b1001111 [
b111101000011 (
b111101000011 2
b111101000011 D
b111101000011 L
b111101000011 ^
b1000011 "
b1000011 6
b1000011 :
b1000011 Z
b1000011 b
b1 *
b1 ;
b1 O
b1 a
b100001 ?
b100001 V
1#
b1111 &
b1111 3
b1111 0
b1111 P
b1111 T
b1111 ]
b1111 d
b1111 j
b1111 l
bz `
1,
#10
0,
#15
b1111 &
b1111 3
b1111 0
b1111 P
b1111 T
b1111 ]
b1111 d
b1111 j
b1111 l
0F
b0 f
1Q
0U
1M
0J
b1000000001000 9
b1000000001000 W
b1000000001000 X
1Y
b100000 ?
b100000 V
0#
b1111 )
b1111 1
b1111 E
b1111 H
b1111 c
1,
#20
0,
#25
b11 A
b11 G
b11 R
b11 e
b11 g
b11 &
b11 3
b11 0
b11 P
b11 T
b11 ]
b11 d
b11 j
b11 l
1F
b10 f
0Q
1U
0M
1J
b11010000010 9
b11010000010 W
b11010000010 X
b11 $
b11 5
b11 <
b11 S
0Y
b1000011 [
b1111000001 (
b1111000001 2
b1111000001 D
b1111000001 L
b1111000001 ^
b11000001 "
b11000001 6
b11000001 :
b11000001 Z
b11000001 b
b10 *
b10 ;
b10 O
b10 a
b100001 ?
b100001 V
1#
1,
#30
0,
#35
b11 &
b11 3
b11 0
b11 P
b11 T
b11 ]
b11 d
b11 j
b11 l
0F
b0 f
1Q
0U
1M
0J
b1000000001000 9
b1000000001000 W
b1000000001000 X
1Y
b100000 ?
b100000 V
0#
b11 )
b11 1
b11 E
b11 H
b11 c
1,
#40
0,
#45
1N
0M
b100000001000 9
b100000001000 W
b100000001000 X
b1 $
b1 5
b1 <
b1 S
b1100 %
b1100 4
b1100 =
0Y
b11000001 [
b100100011 (
b100100011 2
b100100011 D
b100100011 L
b100100011 ^
b100011 "
b100011 6
b100011 :
b100011 Z
b100011 b
b11 *
b11 ;
b11 O
b11 a
b1100001 ?
b1100001 V
1#
1,
#50
0,
#55
1M
0N
b1000000001000 9
b1000000001000 W
b1000000001000 X
1Y
b1100000 ?
b1100000 V
0#
b110100001 (
b110100001 2
b110100001 D
b110100001 L
b110100001 ^
b10100001 "
b10100001 6
b10100001 :
b10100001 Z
b10100001 b
b100100011 *
b100100011 ;
b100100011 O
b100100011 a
1,
#60
0,
#65
b100 h
b100 A
b100 G
b100 R
b100 e
b100 g
b1 &
b1 3
b1 0
b1 P
b1 T
b1 ]
b1 d
b1 j
b1 l
1F
b11 f
0Q
1U
1J
0M
b11011000010 9
b11011000010 W
b11011000010 X
b1010 %
b1010 4
b1010 =
0Y
b10100001 [
b111011010 (
b111011010 2
b111011010 D
b111011010 L
b111011010 ^
b11011010 "
b11011010 6
b11011010 :
b11011010 Z
b11011010 b
b100100100 *
b100100100 ;
b100100100 O
b100100100 a
b1010001 ?
b1010001 V
1#
1,
#70
0,
#75
b100 &
b100 3
b100 0
b100 P
b100 T
b100 ]
b100 d
b100 j
b100 l
0F
b0 f
1Q
0U
1M
0J
b1000000001000 9
b1000000001000 W
b1000000001000 X
1Y
b101 h
b100 A
b100 G
b100 R
b100 e
b100 g
b1010000 ?
b1010000 V
0#
b100 )
b100 1
b100 E
b100 H
b100 c
1,
#80
0,
#84
b101 /
#85
1m
0M
b1001 9
b1001 W
b1001 X
b1010 $
b1010 5
b1010 <
b1010 S
b1101 %
b1101 4
b1101 =
0Y
b11011010 [
b101001011111 (
b101001011111 2
b101001011111 D
b101001011111 L
b101001011111 ^
b1011111 "
b1011111 6
b1011111 :
b1011111 Z
b1011111 b
b100100101 *
b100100101 ;
b100100101 O
b100100101 a
b1101001 ?
b1101001 V
1#
1,
#90
0,
#95
0m
1M
b1000000001000 9
b1000000001000 W
b1000000001000 X
1Y
b1101000 ?
b1101000 V
0#
b100 +
b100 >
b100 n
1,
#100
0,
#105
b110 A
b110 G
b110 R
b110 e
b110 g
b110 &
b110 3
b110 0
b110 P
b110 T
b110 ]
b110 d
b110 j
b110 l
1F
b10 f
1k
0Q
1J
0M
b11010000100 9
b11010000100 W
b11010000100 X
b1111 $
b1111 5
b1111 <
b1111 S
b101 %
b101 4
b101 =
0Y
b1011111 [
b111101110010 (
b111101110010 2
b111101110010 D
b111101110010 L
b111101110010 ^
b1110010 "
b1110010 6
b1110010 :
b1110010 Z
b1110010 b
b100100110 *
b100100110 ;
b100100110 O
b100100110 a
b101001 ?
b101001 V
1#
1,
#110
0,
#115
0F
b0 f
0k
1Q
1M
0J
b1000000001000 9
b1000000001000 W
b1000000001000 X
1Y
b101000 ?
b101000 V
0#
b110 )
b110 1
b110 E
b110 H
b110 c
1,
#120
0,
#125
1_
1\
b1000000111000 9
b1000000111000 W
b1000000111000 X
b10 $
b10 5
b10 <
b10 S
b111 %
b111 4
b111 =
0Y
b1110010 [
b1000110100 (
b1000110100 2
b1000110100 D
b1000110100 L
b1000110100 ^
b110100 "
b110100 6
b110100 :
b110100 Z
b110100 b
b100100111 *
b100100111 ;
b100100111 O
b100100111 a
b111001 ?
b111001 V
1#
1,
#130
0,
#135
0_
0\
b1000000001000 9
b1000000001000 W
b1000000001000 X
1Y
b111000 ?
b111000 V
0#
b1001000001 (
b1001000001 2
b1001000001 D
b1001000001 L
b1001000001 ^
b1000001 "
b1000001 6
b1000001 :
b1000001 Z
b1000001 b
b100101000 *
b100101000 ;
b100101000 O
b100101000 a
1,
#140
0,
#145
b1 A
b1 G
b1 R
b1 e
b1 g
b1 &
b1 3
b1 0
b1 P
b1 T
b1 ]
b1 d
b1 j
b1 l
1F
b10 f
0Q
1U
0M
1J
b11010000010 9
b11010000010 W
b11010000010 X
b1 $
b1 5
b1 <
b1 S
b100 %
b100 4
b100 =
0Y
b1000001 [
b110110010 (
b110110010 2
b110110010 D
b110110010 L
b110110010 ^
b10110010 "
b10110010 6
b10110010 :
b10110010 Z
b10110010 b
b100101001 *
b100101001 ;
b100101001 O
b100101001 a
b100001 ?
b100001 V
1#
1,
#150
0,
#155
b1 &
b1 3
b1 0
b1 P
b1 T
b1 ]
b1 d
b1 j
b1 l
0F
b0 f
1Q
0U
1M
0J
b1000000001000 9
b1000000001000 W
b1000000001000 X
1Y
b100000 ?
b100000 V
0#
b1 )
b1 1
b1 E
b1 H
b1 c
1,
#160
0,
#165
bx h
bx A
bx G
bx R
bx e
bx g
bz &
bz 3
bz 0
bz P
bz T
bz ]
bz d
bz j
bz l
1\
1F
b11 f
0Q
1J
b1011011100000 9
b1011011100000 W
b1011011100000 X
b10 $
b10 5
b10 <
b10 S
b1011 %
b1011 4
b1011 =
0Y
b10110010 [
b1000110100 (
b1000110100 2
b1000110100 D
b1000110100 L
b1000110100 ^
b110100 "
b110100 6
b110100 :
b110100 Z
b110100 b
b100101010 *
b100101010 ;
b100101010 O
b100101010 a
b1011001 ?
b1011001 V
1#
1,
#170
0,
#175
0F
b0 f
1Q
0\
0J
b1000000001000 9
b1000000001000 W
b1000000001000 X
1Y
b1011000 ?
b1011000 V
0#
b1000101000 (
b1000101000 2
b1000101000 D
b1000101000 L
b1000101000 ^
b101000 "
b101000 6
b101000 :
b101000 Z
b101000 b
b100101011 *
b100101011 ;
b100101011 O
b100101011 a
bx )
bx 1
bx E
bx H
bx c
bx h
bx A
bx G
bx R
bx e
bx g
bx &
bx 3
bx 0
bx P
bx T
bx ]
bx d
bx j
bx l
b110 `
1,
#180
0,
#185
bx0 &
bx0 3
bx0 0
bx0 P
bx0 T
bx0 ]
bx0 d
bx0 j
bx0 l
1U
0M
b1 f
0Q
1J
b1001000010 9
b1001000010 W
b1001000010 X
b1000 $
b1000 5
b1000 <
b1000 S
b10 %
b10 4
b10 =
0Y
b101000 [
b100000010000 (
b100000010000 2
b100000010000 D
b100000010000 L
b100000010000 ^
b10000 "
b10000 6
b10000 :
b10000 Z
b10000 b
b100101100 *
b100101100 ;
b100101100 O
b100101100 a
b10001 ?
b10001 V
1#
1,
#190
0,
#195
bx &
bx 3
bx 0
bx P
bx T
bx ]
bx d
bx j
bx l
b0 f
1Q
0U
1M
0J
b1000000001000 9
b1000000001000 W
b1000000001000 X
1Y
b10000 ?
b10000 V
0#
1,
#200
0,
#205
1N
0M
b100000001000 9
b100000001000 W
b100000001000 X
b0 $
b0 5
b0 <
b0 S
b1 %
b1 4
b1 =
0Y
b10000 [
b0 (
b0 2
b0 D
b0 L
b0 ^
b0 "
b0 6
b0 :
b0 Z
b0 b
b100101101 *
b100101101 ;
b100101101 O
b100101101 a
b1001 ?
b1001 V
1#
1,
#210
0,
#215
1M
0N
b1000000001000 9
b1000000001000 W
b1000000001000 X
1Y
b1000 ?
b1000 V
0#
b1001111 (
b1001111 2
b1001111 D
b1001111 L
b1001111 ^
b1001111 "
b1001111 6
b1001111 :
b1001111 Z
b1001111 b
b0 *
b0 ;
b0 O
b0 a
1,
#220
0,
#225
bx11x A
bx11x G
bx11x R
bx11x e
bx11x g
bx11x &
bx11x 3
bx11x 0
bx11x P
bx11x T
bx11x ]
bx11x d
bx11x j
bx11x l
1F
b10 f
0Q
1U
1J
0M
b11010000010 9
b11010000010 W
b11010000010 X
b1111 $
b1111 5
b1111 <
b1111 S
b100 %
b100 4
b100 =
0Y
b1001111 [
b111101000011 (
b111101000011 2
b111101000011 D
b111101000011 L
b111101000011 ^
b1000011 "
b1000011 6
b1000011 :
b1000011 Z
b1000011 b
b1 *
b1 ;
b1 O
b1 a
b100001 ?
b100001 V
1#
1,
#230
0,
#235
bx11x &
bx11x 3
bx11x 0
bx11x P
bx11x T
bx11x ]
bx11x d
bx11x j
bx11x l
0F
b0 f
1Q
0U
1M
0J
b1000000001000 9
b1000000001000 W
b1000000001000 X
1Y
b100000 ?
b100000 V
0#
bx11x )
bx11x 1
bx11x E
bx11x H
bx11x c
1,
#240
0,
#245
b0x1x A
b0x1x G
b0x1x R
b0x1x e
b0x1x g
b0x1x &
b0x1x 3
b0x1x 0
b0x1x P
b0x1x T
b0x1x ]
b0x1x d
b0x1x j
b0x1x l
1F
b10 f
0Q
1U
0M
1J
b11010000010 9
b11010000010 W
b11010000010 X
b11 $
b11 5
b11 <
b11 S
0Y
b1000011 [
b1111000001 (
b1111000001 2
b1111000001 D
b1111000001 L
b1111000001 ^
b11000001 "
b11000001 6
b11000001 :
b11000001 Z
b11000001 b
b10 *
b10 ;
b10 O
b10 a
b100001 ?
b100001 V
1#
1,
#250
0,
#255
b0x1x &
b0x1x 3
b0x1x 0
b0x1x P
b0x1x T
b0x1x ]
b0x1x d
b0x1x j
b0x1x l
0F
b0 f
1Q
0U
1M
0J
b1000000001000 9
b1000000001000 W
b1000000001000 X
1Y
b100000 ?
b100000 V
0#
b0x1x )
b0x1x 1
b0x1x E
b0x1x H
b0x1x c
1,
#260
0,
#265
1N
0M
b100000001000 9
b100000001000 W
b100000001000 X
b1 $
b1 5
b1 <
b1 S
b1100 %
b1100 4
b1100 =
0Y
b11000001 [
b100100011 (
b100100011 2
b100100011 D
b100100011 L
b100100011 ^
b100011 "
b100011 6
b100011 :
b100011 Z
b100011 b
b11 *
b11 ;
b11 O
b11 a
b1100001 ?
b1100001 V
1#
1,
#270
0,
#275
1M
0N
b1000000001000 9
b1000000001000 W
b1000000001000 X
1Y
b1100000 ?
b1100000 V
0#
b110100001 (
b110100001 2
b110100001 D
b110100001 L
b110100001 ^
b10100001 "
b10100001 6
b10100001 :
b10100001 Z
b10100001 b
b100100011 *
b100100011 ;
b100100011 O
b100100011 a
1,
#280
0,
#285
bx A
bx G
bx R
bx e
bx g
b0xxx &
b0xxx 3
b0xxx 0
b0xxx P
b0xxx T
b0xxx ]
b0xxx d
b0xxx j
b0xxx l
1F
b11 f
0Q
1U
1J
0M
b11011000010 9
b11011000010 W
b11011000010 X
b1010 %
b1010 4
b1010 =
0Y
b10100001 [
b111011010 (
b111011010 2
b111011010 D
b111011010 L
b111011010 ^
b11011010 "
b11011010 6
b11011010 :
b11011010 Z
b11011010 b
b100100100 *
b100100100 ;
b100100100 O
b100100100 a
b1010001 ?
b1010001 V
1#
1,
#290
0,
#295
bx &
bx 3
bx 0
bx P
bx T
bx ]
bx d
bx j
bx l
0F
b0 f
1Q
0U
1M
0J
b1000000001000 9
b1000000001000 W
b1000000001000 X
1Y
b1010000 ?
b1010000 V
0#
bx )
bx 1
bx E
bx H
bx c
1,
#300
0,
#305
1m
0M
b1001 9
b1001 W
b1001 X
b1010 $
b1010 5
b1010 <
b1010 S
b1101 %
b1101 4
b1101 =
0Y
b11011010 [
b101001011111 (
b101001011111 2
b101001011111 D
b101001011111 L
b101001011111 ^
b1011111 "
b1011111 6
b1011111 :
b1011111 Z
b1011111 b
b100100101 *
b100100101 ;
b100100101 O
b100100101 a
b1101001 ?
b1101001 V
1#
1,
#310
0,
#315
0m
1M
b1000000001000 9
b1000000001000 W
b1000000001000 X
1Y
b1101000 ?
b1101000 V
0#
bx +
bx >
bx n
1,
#320
0,
#325
b110 A
b110 G
b110 R
b110 e
b110 g
b110 &
b110 3
b110 0
b110 P
b110 T
b110 ]
b110 d
b110 j
b110 l
1F
b10 f
1k
0Q
1J
0M
b11010000100 9
b11010000100 W
b11010000100 X
b1111 $
b1111 5
b1111 <
b1111 S
b101 %
b101 4
b101 =
0Y
b1011111 [
b111101110010 (
b111101110010 2
b111101110010 D
b111101110010 L
b111101110010 ^
b1110010 "
b1110010 6
b1110010 :
b1110010 Z
b1110010 b
b100100110 *
b100100110 ;
b100100110 O
b100100110 a
b101001 ?
b101001 V
1#
1,
#330
0,
#335
0F
b0 f
0k
1Q
1M
0J
b1000000001000 9
b1000000001000 W
b1000000001000 X
1Y
b101000 ?
b101000 V
0#
b110 )
b110 1
b110 E
b110 H
b110 c
1,
#340
0,
#345
1_
1\
b1000000111000 9
b1000000111000 W
b1000000111000 X
b10 $
b10 5
b10 <
b10 S
b111 %
b111 4
b111 =
0Y
b1110010 [
b1000110100 (
b1000110100 2
b1000110100 D
b1000110100 L
b1000110100 ^
b110100 "
b110100 6
b110100 :
b110100 Z
b110100 b
b100100111 *
b100100111 ;
b100100111 O
b100100111 a
b111001 ?
b111001 V
1#
1,
#350
0,
#355
0_
0\
b1000000001000 9
b1000000001000 W
b1000000001000 X
1Y
b111000 ?
b111000 V
0#
b1001000001 (
b1001000001 2
b1001000001 D
b1001000001 L
b1001000001 ^
b1000001 "
b1000001 6
b1000001 :
b1000001 Z
b1000001 b
b100101000 *
b100101000 ;
b100101000 O
b100101000 a
1,
#360
0,
#365
b0xxx A
b0xxx G
b0xxx R
b0xxx e
b0xxx g
b0xxx &
b0xxx 3
b0xxx 0
b0xxx P
b0xxx T
b0xxx ]
b0xxx d
b0xxx j
b0xxx l
1F
b10 f
0Q
1U
0M
1J
b11010000010 9
b11010000010 W
b11010000010 X
b1 $
b1 5
b1 <
b1 S
b100 %
b100 4
b100 =
0Y
b1000001 [
b110110010 (
b110110010 2
b110110010 D
b110110010 L
b110110010 ^
b10110010 "
b10110010 6
b10110010 :
b10110010 Z
b10110010 b
b100101001 *
b100101001 ;
b100101001 O
b100101001 a
b100001 ?
b100001 V
1#
1,
#370
0,
#375
b0xxx &
b0xxx 3
b0xxx 0
b0xxx P
b0xxx T
b0xxx ]
b0xxx d
b0xxx j
b0xxx l
0F
b0 f
1Q
0U
1M
0J
b1000000001000 9
b1000000001000 W
b1000000001000 X
1Y
b100000 ?
b100000 V
0#
b0xxx )
b0xxx 1
b0xxx E
b0xxx H
b0xxx c
1,
#380
0,
#385
bx A
bx G
bx R
bx e
bx g
b110 &
b110 3
b110 0
b110 P
b110 T
b110 ]
b110 d
b110 j
b110 l
1\
1F
b11 f
0Q
1J
b1011011100000 9
b1011011100000 W
b1011011100000 X
b10 $
b10 5
b10 <
b10 S
b1011 %
b1011 4
b1011 =
0Y
b10110010 [
b1000110100 (
b1000110100 2
b1000110100 D
b1000110100 L
b1000110100 ^
b110100 "
b110100 6
b110100 :
b110100 Z
b110100 b
b100101010 *
b100101010 ;
b100101010 O
b100101010 a
b1011001 ?
b1011001 V
1#
1,
#390
0,
#395
bx &
bx 3
bx 0
bx P
bx T
bx ]
bx d
bx j
bx l
0F
b0 f
1Q
0\
0J
b1000000001000 9
b1000000001000 W
b1000000001000 X
1Y
b1011000 ?
b1011000 V
0#
b1000101000 (
b1000101000 2
b1000101000 D
b1000101000 L
b1000101000 ^
b101000 "
b101000 6
b101000 :
b101000 Z
b101000 b
b100101011 *
b100101011 ;
b100101011 O
b100101011 a
bx )
bx 1
bx E
bx H
bx c
1,
#400
0,
#405
bx0 &
bx0 3
bx0 0
bx0 P
bx0 T
bx0 ]
bx0 d
bx0 j
bx0 l
1U
0M
b1 f
0Q
1J
b1001000010 9
b1001000010 W
b1001000010 X
b1000 $
b1000 5
b1000 <
b1000 S
b10 %
b10 4
b10 =
0Y
b101000 [
b100000010000 (
b100000010000 2
b100000010000 D
b100000010000 L
b100000010000 ^
b10000 "
b10000 6
b10000 :
b10000 Z
b10000 b
b100101100 *
b100101100 ;
b100101100 O
b100101100 a
b10001 ?
b10001 V
1#
1,
#410
0,
#415
bx &
bx 3
bx 0
bx P
bx T
bx ]
bx d
bx j
bx l
b0 f
1Q
0U
1M
0J
b1000000001000 9
b1000000001000 W
b1000000001000 X
1Y
b10000 ?
b10000 V
0#
1,
#420
0,
#425
1N
0M
b100000001000 9
b100000001000 W
b100000001000 X
b0 $
b0 5
b0 <
b0 S
b1 %
b1 4
b1 =
0Y
b10000 [
b0 (
b0 2
b0 D
b0 L
b0 ^
b0 "
b0 6
b0 :
b0 Z
b0 b
b100101101 *
b100101101 ;
b100101101 O
b100101101 a
b1001 ?
b1001 V
1#
1,
#430
0,
#435
1M
0N
b1000000001000 9
b1000000001000 W
b1000000001000 X
1Y
b1000 ?
b1000 V
0#
b1001111 (
b1001111 2
b1001111 D
b1001111 L
b1001111 ^
b1001111 "
b1001111 6
b1001111 :
b1001111 Z
b1001111 b
b0 *
b0 ;
b0 O
b0 a
1,
#440
0,
#445
bx11x A
bx11x G
bx11x R
bx11x e
bx11x g
bx11x &
bx11x 3
bx11x 0
bx11x P
bx11x T
bx11x ]
bx11x d
bx11x j
bx11x l
1F
b10 f
0Q
1U
1J
0M
b11010000010 9
b11010000010 W
b11010000010 X
b1111 $
b1111 5
b1111 <
b1111 S
b100 %
b100 4
b100 =
0Y
b1001111 [
b111101000011 (
b111101000011 2
b111101000011 D
b111101000011 L
b111101000011 ^
b1000011 "
b1000011 6
b1000011 :
b1000011 Z
b1000011 b
b1 *
b1 ;
b1 O
b1 a
b100001 ?
b100001 V
1#
1,
#450
0,
#455
bx11x &
bx11x 3
bx11x 0
bx11x P
bx11x T
bx11x ]
bx11x d
bx11x j
bx11x l
0F
b0 f
1Q
0U
1M
0J
b1000000001000 9
b1000000001000 W
b1000000001000 X
1Y
b100000 ?
b100000 V
0#
bx11x )
bx11x 1
bx11x E
bx11x H
bx11x c
1,
#460
0,
#465
b0x1x A
b0x1x G
b0x1x R
b0x1x e
b0x1x g
b0x1x &
b0x1x 3
b0x1x 0
b0x1x P
b0x1x T
b0x1x ]
b0x1x d
b0x1x j
b0x1x l
1F
b10 f
0Q
1U
0M
1J
b11010000010 9
b11010000010 W
b11010000010 X
b11 $
b11 5
b11 <
b11 S
0Y
b1000011 [
b1111000001 (
b1111000001 2
b1111000001 D
b1111000001 L
b1111000001 ^
b11000001 "
b11000001 6
b11000001 :
b11000001 Z
b11000001 b
b10 *
b10 ;
b10 O
b10 a
b100001 ?
b100001 V
1#
1,
#470
0,
#475
b0x1x &
b0x1x 3
b0x1x 0
b0x1x P
b0x1x T
b0x1x ]
b0x1x d
b0x1x j
b0x1x l
0F
b0 f
1Q
0U
1M
0J
b1000000001000 9
b1000000001000 W
b1000000001000 X
1Y
b100000 ?
b100000 V
0#
b0x1x )
b0x1x 1
b0x1x E
b0x1x H
b0x1x c
1,
#480
0,
#485
1N
0M
b100000001000 9
b100000001000 W
b100000001000 X
b1 $
b1 5
b1 <
b1 S
b1100 %
b1100 4
b1100 =
0Y
b11000001 [
b100100011 (
b100100011 2
b100100011 D
b100100011 L
b100100011 ^
b100011 "
b100011 6
b100011 :
b100011 Z
b100011 b
b11 *
b11 ;
b11 O
b11 a
b1100001 ?
b1100001 V
1#
1,
#490
0,
#495
1M
0N
b1000000001000 9
b1000000001000 W
b1000000001000 X
1Y
b1100000 ?
b1100000 V
0#
b110100001 (
b110100001 2
b110100001 D
b110100001 L
b110100001 ^
b10100001 "
b10100001 6
b10100001 :
b10100001 Z
b10100001 b
b100100011 *
b100100011 ;
b100100011 O
b100100011 a
1,
