Proyecto_Procesador/uP_tb.vcd
$date
	Mon Nov 16 15:59:46 2020
$end
$version
	Icarus Verilog
$end
$timescale
	1ps
$end
$scope module testbench $end
$var wire 1 ! z_flag $end
$var wire 8 " program_byte [7:0] $end
$var wire 1 # phase $end
$var wire 4 $ oprnd [3:0] $end
$var wire 4 % instr [3:0] $end
$var wire 4 & data_bus [3:0] $end
$var wire 1 ' c_flag $end
$var wire 12 ( address_RAM [11:0] $end
$var wire 4 ) accu [3:0] $end
$var wire 12 * PC [11:0] $end
$var wire 4 + FF_out [3:0] $end
$var reg 1 , clock $end
$var reg 4 - pushbuttons [3:0] $end
$var reg 1 . reset $end
$var integer 32 / nota [31:0] $end
$scope module uPmodule $end
$var wire 4 0 DATA_BUS [3:0] $end
$var wire 4 1 accu [3:0] $end
$var wire 12 2 address_RAM [11:0] $end
$var wire 1 ' c_flag $end
$var wire 1 , clock $end
$var wire 4 3 data_bus [3:0] $end
$var wire 4 4 instr [3:0] $end
$var wire 4 5 oprnd [3:0] $end
$var wire 8 6 program_byte [7:0] $end
$var wire 4 7 pushbuttons [3:0] $end
$var wire 1 . reset $end
$var wire 1 ! z_flag $end
$var wire 1 # phase $end
$var wire 1 8 Z_FLAG $end
$var wire 13 9 SC [12:0] $end
$var wire 8 : PROGRAM_BYTE [7:0] $end
$var wire 12 ; PC [11:0] $end
$var wire 4 < OPRND [3:0] $end
$var wire 4 = INSTR [3:0] $end
$var wire 4 > FF_out [3:0] $end
$var wire 7 ? DECODE_address [6:0] $end
$var wire 1 @ C_FLAG $end
$var wire 4 A ALU_OUT [3:0] $end
$var wire 1 B ALUZ $end
$var wire 1 C ALUC $end
$var wire 12 D ADDRESS_ram [11:0] $end
$var wire 4 E ACCUU [3:0] $end
$scope module FASE $end
$var wire 1 , clk $end
$var wire 1 . reset $end
$var reg 1 # Y $end
$upscope $end
$scope module acumulador $end
$var wire 1 , clk $end
$var wire 1 F enable $end
$var wire 1 . reset $end
$var wire 4 G D [3:0] $end
$var reg 4 H Y [3:0] $end
$upscope $end
$scope module banderas $end
$var wire 2 I D [1:0] $end
$var wire 1 , clk $end
$var wire 1 J enable $end
$var wire 1 . reset $end
$var reg 2 K Y [1:0] $end
$upscope $end
$scope module contador $end
$var wire 12 L Bload [11:0] $end
$var wire 1 M ENABLE $end
$var wire 1 N LOAD $end
$var wire 1 , clk $end
$var wire 1 . reset $end
$var reg 12 O Y [11:0] $end
$upscope $end
$scope module deALU $end
$var wire 4 P Y [3:0] $end
$var wire 1 Q enable $end
$var wire 4 R D [3:0] $end
$upscope $end
$scope module delfetch $end
$var wire 4 S D [3:0] $end
$var wire 4 T Y [3:0] $end
$var wire 1 U enable $end
$upscope $end
$scope module dicode $end
$var wire 7 V direccion [6:0] $end
$var wire 13 W senal [12:0] $end
$var reg 13 X datos [12:0] $end
$upscope $end
$scope module ftch $end
$var wire 1 , clk $end
$var wire 1 Y enable $end
$var wire 1 . reset $end
$var wire 8 Z D [7:0] $end
$var reg 8 [ Y [7:0] $end
$upscope $end
$scope module memram $end
$var wire 1 \ cs $end
$var wire 4 ] data [3:0] $end
$var wire 4 ^ datain [3:0] $end
$var wire 12 _ direccion [11:0] $end
$var wire 1 ` we $end
$var reg 4 a data_out [3:0] $end
$upscope $end
$scope module opcode $end
$var wire 12 b direccion [11:0] $end
$var wire 8 c salida [7:0] $end
$upscope $end
$scope module operaciones $end
$var wire 4 d A [3:0] $end
$var wire 4 e B [3:0] $end
$var wire 4 f Y [3:0] $end
$var wire 3 g selector [2:0] $end
$var reg 1 C C $end
$var reg 4 h RESalu [3:0] $end
$var reg 1 B ZERO $end
$var reg 5 i carry [4:0] $end
$upscope $end
$scope module pushes $end
$var wire 4 j D [3:0] $end
$var wire 4 k Y [3:0] $end
$var wire 1 l enable $end
$upscope $end
$scope module salida $end
$var wire 4 m D [3:0] $end
$var wire 1 , clk $end
$var wire 1 n enable $end
$var wire 1 . reset $end
$var reg 4 o Y [3:0] $end
$upscope $end
$upscope $end
$upscope $end
$enddefinitions $end
#0
$dumpvars
bx o
xn
bx m
xl
bx k
b110 j
bx i
bx h
bx g
bx f
bx e
bx d
bx c
bx b
bx a
x`
bx _
bx ^
bx ]
x\
bx [
bx Z
xY
bx X
bx W
bx V
xU
bx T
bx S
bx R
xQ
bx P
bx O
xN
xM
bx L
bx K
xJ
bx I
bx H
bx G
xF
bx E
bx D
xC
xB
bx A
x@
bx ?
bx >
bx =
bx <
bx ;
bx :
bx 9
x8
b110 7
bx 6
bx 5
bx 4
bx 3
bx 2
bx 1
bx 0
b0 /
0.
b110 -
0,
bx +
bx *
bx )
bx (
x'
bx &
bx %
bx $
x#
bx "
x!
$end
#2
b0 &
b0 3
b0 0
b0 P
b0 T
b0 ]
b0 ^
b0 e
b0 k
b0 m
0n
0F
b0 g
0l
1Q
0U
0`
0\
1M
0N
0J
b1000000001000 9
b1000000001000 W
b1000000001000 X
1Y
08
0@
b0 $
b0 5
b0 <
b0 S
b0 %
b0 4
b0 =
0'
0C
b1 I
1!
1B
b0 i
b0 A
b0 G
b0 R
b0 f
b0 h
b0 ?
b0 V
0#
b0 K
b1001111 (
b1001111 2
b1001111 D
b1001111 L
b1001111 _
b1001111 "
b1001111 6
b1001111 :
b1001111 Z
b1001111 c
b0 *
b0 ;
b0 O
b0 b
b0 [
b0 )
b0 1
b0 E
b0 H
b0 d
b0 +
b0 >
b0 o
1.
#3
0.
#5
b0 I
0!
0B
b1111 A
b1111 G
b1111 R
b1111 f
b1111 h
b1111 &
b1111 3
b1111 0
b1111 P
b1111 T
b1111 ]
b1111 ^
b1111 e
b1111 k
b1111 m
1F
b10 g
0Q
1U
0M
1J
b11010000010 9
b11010000010 W
b11010000010 X
b1111 $
b1111 5
b1111 <
b1111 S
b100 %
b100 4
b100 =
0Y
b1001111 [
b111101000011 (
b111101000011 2
b111101000011 D
b111101000011 L
b111101000011 _
b1000011 "
b1000011 6
b1000011 :
b1000011 Z
b1000011 c
b1 *
b1 ;
b1 O
b1 b
b100001 ?
b100001 V
1#
1,
#10
0,
#15
b1111 &
b1111 3
b1111 0
b1111 P
b1111 T
b1111 ]
b1111 ^
b1111 e
b1111 k
b1111 m
0F
b0 g
1Q
0U
1M
0J
b1000000001000 9
b1000000001000 W
b1000000001000 X
1Y
b100000 ?
b100000 V
0#
b1111 )
b1111 1
b1111 E
b1111 H
b1111 d
1,
#20
0,
#25
b11 A
b11 G
b11 R
b11 f
b11 h
b11 &
b11 3
b11 0
b11 P
b11 T
b11 ]
b11 ^
b11 e
b11 k
b11 m
1F
b10 g
0Q
1U
0M
1J
b11010000010 9
b11010000010 W
b11010000010 X
b11 $
b11 5
b11 <
b11 S
0Y
b1000011 [
b1111000001 (
b1111000001 2
b1111000001 D
b1111000001 L
b1111000001 _
b11000001 "
b11000001 6
b11000001 :
b11000001 Z
b11000001 c
b10 *
b10 ;
b10 O
b10 b
b100001 ?
b100001 V
1#
1,
#30
0,
#35
b11 &
b11 3
b11 0
b11 P
b11 T
b11 ]
b11 ^
b11 e
b11 k
b11 m
0F
b0 g
1Q
0U
1M
0J
b1000000001000 9
b1000000001000 W
b1000000001000 X
1Y
b100000 ?
b100000 V
0#
b11 )
b11 1
b11 E
b11 H
b11 d
1,
#40
0,
#45
1N
0M
b100000001000 9
b100000001000 W
b100000001000 X
b1 $
b1 5
b1 <
b1 S
b1100 %
b1100 4
b1100 =
0Y
b11000001 [
b100100011 (
b100100011 2
b100100011 D
b100100011 L
b100100011 _
b100011 "
b100011 6
b100011 :
b100011 Z
b100011 c
b11 *
b11 ;
b11 O
b11 b
b1100001 ?
b1100001 V
1#
1,
#50
0,
#55
1M
0N
b1000000001000 9
b1000000001000 W
b1000000001000 X
1Y
b1100000 ?
b1100000 V
0#
b110100001 (
b110100001 2
b110100001 D
b110100001 L
b110100001 _
b10100001 "
b10100001 6
b10100001 :
b10100001 Z
b10100001 c
b100100011 *
b100100011 ;
b100100011 O
b100100011 b
1,
#60
0,
#65
b100 i
b100 A
b100 G
b100 R
b100 f
b100 h
b1 &
b1 3
b1 0
b1 P
b1 T
b1 ]
b1 ^
b1 e
b1 k
b1 m
1F
b11 g
0Q
1U
1J
0M
b11011000010 9
b11011000010 W
b11011000010 X
b1010 %
b1010 4
b1010 =
0Y
b10100001 [
b111011010 (
b111011010 2
b111011010 D
b111011010 L
b111011010 _
b11011010 "
b11011010 6
b11011010 :
b11011010 Z
b11011010 c
b100100100 *
b100100100 ;
b100100100 O
b100100100 b
b1010001 ?
b1010001 V
1#
1,
#70
0,
#75
b100 &
b100 3
b100 0
b100 P
b100 T
b100 ]
b100 ^
b100 e
b100 k
b100 m
0F
b0 g
1Q
0U
1M
0J
b1000000001000 9
b1000000001000 W
b1000000001000 X
1Y
b101 i
b100 A
b100 G
b100 R
b100 f
b100 h
b1010000 ?
b1010000 V
0#
b100 )
b100 1
b100 E
b100 H
b100 d
1,
#80
0,
#84
b101 /
#85
1n
0M
b1001 9
b1001 W
b1001 X
b1010 $
b1010 5
b1010 <
b1010 S
b1101 %
b1101 4
b1101 =
0Y
b11011010 [
b101001011111 (
b101001011111 2
b101001011111 D
b101001011111 L
b101001011111 _
b1011111 "
b1011111 6
b1011111 :
b1011111 Z
b1011111 c
b100100101 *
b100100101 ;
b100100101 O
b100100101 b
b1101001 ?
b1101001 V
1#
1,
#90
0,
#95
0n
1M
b1000000001000 9
b1000000001000 W
b1000000001000 X
1Y
b1101000 ?
b1101000 V
0#
b100 +
b100 >
b100 o
1,
#100
0,
#105
b110 A
b110 G
b110 R
b110 f
b110 h
b110 &
b110 3
b110 0
b110 P
b110 T
b110 ]
b110 ^
b110 e
b110 k
b110 m
1F
b10 g
1l
0Q
1J
0M
b11010000100 9
b11010000100 W
b11010000100 X
b1111 $
b1111 5
b1111 <
b1111 S
b101 %
b101 4
b101 =
0Y
b1011111 [
b111101110010 (
b111101110010 2
b111101110010 D
b111101110010 L
b111101110010 _
b1110010 "
b1110010 6
b1110010 :
b1110010 Z
b1110010 c
b100100110 *
b100100110 ;
b100100110 O
b100100110 b
b101001 ?
b101001 V
1#
1,
#110
0,
#115
0F
b0 g
0l
1Q
1M
0J
b1000000001000 9
b1000000001000 W
b1000000001000 X
1Y
b101000 ?
b101000 V
0#
b110 )
b110 1
b110 E
b110 H
b110 d
1,
#120
0,
#125
1`
1\
b1000000111000 9
b1000000111000 W
b1000000111000 X
b10 $
b10 5
b10 <
b10 S
b111 %
b111 4
b111 =
0Y
b1110010 [
b1000110100 (
b1000110100 2
b1000110100 D
b1000110100 L
b1000110100 _
b110100 "
b110100 6
b110100 :
b110100 Z
b110100 c
b100100111 *
b100100111 ;
b100100111 O
b100100111 b
b111001 ?
b111001 V
1#
1,
#130
0,
#135
0`
0\
b1000000001000 9
b1000000001000 W
b1000000001000 X
1Y
b111000 ?
b111000 V
0#
b1001000001 (
b1001000001 2
b1001000001 D
b1001000001 L
b1001000001 _
b1000001 "
b1000001 6
b1000001 :
b1000001 Z
b1000001 c
b100101000 *
b100101000 ;
b100101000 O
b100101000 b
1,
#140
0,
#145
b1 A
b1 G
b1 R
b1 f
b1 h
b1 &
b1 3
b1 0
b1 P
b1 T
b1 ]
b1 ^
b1 e
b1 k
b1 m
1F
b10 g
0Q
1U
0M
1J
b11010000010 9
b11010000010 W
b11010000010 X
b1 $
b1 5
b1 <
b1 S
b100 %
b100 4
b100 =
0Y
b1000001 [
b110110010 (
b110110010 2
b110110010 D
b110110010 L
b110110010 _
b10110010 "
b10110010 6
b10110010 :
b10110010 Z
b10110010 c
b100101001 *
b100101001 ;
b100101001 O
b100101001 b
b100001 ?
b100001 V
1#
1,
#150
0,
#155
b1 &
b1 3
b1 0
b1 P
b1 T
b1 ]
b1 ^
b1 e
b1 k
b1 m
0F
b0 g
1Q
0U
1M
0J
b1000000001000 9
b1000000001000 W
b1000000001000 X
1Y
b100000 ?
b100000 V
0#
b1 )
b1 1
b1 E
b1 H
b1 d
1,
#160
0,
#165
b110 a
b111 i
b111 A
b111 G
b111 R
b111 f
b111 h
b110 &
b110 3
b110 0
b110 P
b110 T
b110 ]
b110 ^
b110 e
b110 k
b110 m
1\
1F
b11 g
0Q
1J
b1011011100000 9
b1011011100000 W
b1011011100000 X
b10 $
b10 5
b10 <
b10 S
b1011 %
b1011 4
b1011 =
0Y
b10110010 [
b1000110100 (
b1000110100 2
b1000110100 D
b1000110100 L
b1000110100 _
b110100 "
b110100 6
b110100 :
b110100 Z
b110100 c
b100101010 *
b100101010 ;
b100101010 O
b100101010 b
b1011001 ?
b1011001 V
1#
1,
#170
0,
#175
0F
b0 g
1Q
0\
0J
b111 &
b111 3
b111 0
b111 P
b111 T
b111 ]
b111 ^
b111 e
b111 k
b111 m
b1000000001000 9
b1000000001000 W
b1000000001000 X
bx a
1Y
b1101 i
b111 A
b111 G
b111 R
b111 f
b111 h
b1011000 ?
b1011000 V
0#
b1000101000 (
b1000101000 2
b1000101000 D
b1000101000 L
b1000101000 _
b101000 "
b101000 6
b101000 :
b101000 Z
b101000 c
b100101011 *
b100101011 ;
b100101011 O
b100101011 b
b111 )
b111 1
b111 E
b111 H
b111 d
1,
#180
0,
#185
b10 I
1'
1C
b11111 i
b1111 A
b1111 G
b1111 R
b1111 f
b1111 h
b1000 &
b1000 3
b1000 0
b1000 P
b1000 T
b1000 ]
b1000 ^
b1000 e
b1000 k
b1000 m
1U
0M
b1 g
0Q
1J
b1001000010 9
b1001000010 W
b1001000010 X
b1000 $
b1000 5
b1000 <
b1000 S
b10 %
b10 4
b10 =
0Y
b101000 [
b100000010000 (
b100000010000 2
b100000010000 D
b100000010000 L
b100000010000 _
b10000 "
b10000 6
b10000 :
b10000 Z
b10000 c
b100101100 *
b100101100 ;
b100101100 O
b100101100 b
b10001 ?
b10001 V
1#
1,
#190
0,
#195
b111 A
b111 G
b111 R
b111 f
b111 h
b111 &
b111 3
b111 0
b111 P
b111 T
b111 ]
b111 ^
b111 e
b111 k
b111 m
b0 g
1Q
0U
1M
0J
b1000000001000 9
b1000000001000 W
b1000000001000 X
1Y
1@
b10100 ?
b10100 V
0#
b10 K
1,
#200
0,
#205
b1000000001000 9
b1000000001000 W
b1000000001000 X
b0 $
b0 5
b0 <
b0 S
b1 %
b1 4
b1 =
0Y
b10000 [
b0 (
b0 2
b0 D
b0 L
b0 _
b0 "
b0 6
b0 :
b0 Z
b0 c
b100101101 *
b100101101 ;
b100101101 O
b100101101 b
b1101 ?
b1101 V
1#
1,
#210
0,
#215
1Y
b1100 ?
b1100 V
0#
b1000000 (
b1000000 2
b1000000 D
b1000000 L
b1000000 _
b1000000 "
b1000000 6
b1000000 :
b1000000 Z
b1000000 c
b100101110 *
b100101110 ;
b100101110 O
b100101110 b
1,
#220
0,
#225
b11 I
1!
1B
b0 A
b0 G
b0 R
b0 f
b0 h
b0 &
b0 3
b0 0
b0 P
b0 T
b0 ]
b0 ^
b0 e
b0 k
b0 m
1F
b10 g
0Q
1U
0M
1J
b11010000010 9
b11010000010 W
b11010000010 X
b100 %
b100 4
b100 =
0Y
b1000000 [
b10000000 (
b10000000 2
b10000000 D
b10000000 L
b10000000 _
b10000000 "
b10000000 6
b10000000 :
b10000000 Z
b10000000 c
b100101111 *
b100101111 ;
b100101111 O
b100101111 b
b100101 ?
b100101 V
1#
1,
#230
0,
#235
b0 &
b0 3
b0 0
b0 P
b0 T
b0 ]
b0 ^
b0 e
b0 k
b0 m
0F
b0 g
1Q
0U
1M
0J
b1000000001000 9
b1000000001000 W
b1000000001000 X
1Y
18
b100110 ?
b100110 V
0#
b11 K
b0 )
b0 1
b0 E
b0 H
b0 d
1,
#240
0,
#245
1N
0M
b100000001000 9
b100000001000 W
b100000001000 X
b1000 %
b1000 4
b1000 =
0Y
b10000000 [
b1 (
b1 2
b1 D
b1 L
b1 _
b1 "
b1 6
b1 :
b1 Z
b1 c
b100110000 *
b100110000 ;
b100110000 O
b100110000 b
b1000111 ?
b1000111 V
1#
1,
#250
0,
#255
1M
0N
b1000000001000 9
b1000000001000 W
b1000000001000 X
1Y
b1000110 ?
b1000110 V
0#
b1000011 (
b1000011 2
b1000011 D
b1000011 L
b1000011 _
b1000011 "
b1000011 6
b1000011 :
b1000011 Z
b1000011 c
b1 *
b1 ;
b1 O
b1 b
1,
#260
0,
#265
b10 I
0!
0B
b11 A
b11 G
b11 R
b11 f
b11 h
b11 &
b11 3
b11 0
b11 P
b11 T
b11 ]
b11 ^
b11 e
b11 k
b11 m
1F
b10 g
0Q
1U
1J
0M
b11010000010 9
b11010000010 W
b11010000010 X
b11 $
b11 5
b11 <
b11 S
b100 %
b100 4
b100 =
0Y
b1000011 [
b1111000001 (
b1111000001 2
b1111000001 D
b1111000001 L
b1111000001 _
b11000001 "
b11000001 6
b11000001 :
b11000001 Z
b11000001 c
b10 *
b10 ;
b10 O
b10 b
b100111 ?
b100111 V
1#
1,
#270
0,
#275
b11 &
b11 3
b11 0
b11 P
b11 T
b11 ]
b11 ^
b11 e
b11 k
b11 m
0F
b0 g
1Q
0U
1M
0J
b1000000001000 9
b1000000001000 W
b1000000001000 X
1Y
08
b100100 ?
b100100 V
0#
b10 K
b11 )
b11 1
b11 E
b11 H
b11 d
1,
#280
0,
#285
1N
0M
b100000001000 9
b100000001000 W
b100000001000 X
b1 $
b1 5
b1 <
b1 S
b1100 %
b1100 4
b1100 =
0Y
b11000001 [
b100100011 (
b100100011 2
b100100011 D
b100100011 L
b100100011 _
b100011 "
b100011 6
b100011 :
b100011 Z
b100011 c
b11 *
b11 ;
b11 O
b11 b
b1100101 ?
b1100101 V
1#
1,
#290
0,
#295
1M
0N
b1000000001000 9
b1000000001000 W
b1000000001000 X
1Y
b1100100 ?
b1100100 V
0#
b110100001 (
b110100001 2
b110100001 D
b110100001 L
b110100001 _
b10100001 "
b10100001 6
b10100001 :
b10100001 Z
b10100001 c
b100100011 *
b100100011 ;
b100100011 O
b100100011 b
1,
#300
0,
#305
b0 I
0'
0C
b100 i
b100 A
b100 G
b100 R
b100 f
b100 h
b1 &
b1 3
b1 0
b1 P
b1 T
b1 ]
b1 ^
b1 e
b1 k
b1 m
1F
b11 g
0Q
1U
1J
0M
b11011000010 9
b11011000010 W
b11011000010 X
b1010 %
b1010 4
b1010 =
0Y
b10100001 [
b111011010 (
b111011010 2
b111011010 D
b111011010 L
b111011010 _
b11011010 "
b11011010 6
b11011010 :
b11011010 Z
b11011010 c
b100100100 *
b100100100 ;
b100100100 O
b100100100 b
b1010101 ?
b1010101 V
1#
1,
#310
0,
#315
b100 &
b100 3
b100 0
b100 P
b100 T
b100 ]
b100 ^
b100 e
b100 k
b100 m
0F
b0 g
1Q
0U
1M
0J
b1000000001000 9
b1000000001000 W
b1000000001000 X
1Y
0@
b101 i
b100 A
b100 G
b100 R
b100 f
b100 h
b1010000 ?
b1010000 V
0#
b0 K
b100 )
b100 1
b100 E
b100 H
b100 d
1,
#320
0,
#325
1n
0M
b1001 9
b1001 W
b1001 X
b1010 $
b1010 5
b1010 <
b1010 S
b1101 %
b1101 4
b1101 =
0Y
b11011010 [
b101001011111 (
b101001011111 2
b101001011111 D
b101001011111 L
b101001011111 _
b1011111 "
b1011111 6
b1011111 :
b1011111 Z
b1011111 c
b100100101 *
b100100101 ;
b100100101 O
b100100101 b
b1101001 ?
b1101001 V
1#
1,
#330
0,
#335
0n
1M
b1000000001000 9
b1000000001000 W
b1000000001000 X
1Y
b1101000 ?
b1101000 V
0#
1,
#340
0,
#345
b110 A
b110 G
b110 R
b110 f
b110 h
b110 &
b110 3
b110 0
b110 P
b110 T
b110 ]
b110 ^
b110 e
b110 k
b110 m
1F
b10 g
1l
0Q
1J
0M
b11010000100 9
b11010000100 W
b11010000100 X
b1111 $
b1111 5
b1111 <
b1111 S
b101 %
b101 4
b101 =
0Y
b1011111 [
b111101110010 (
b111101110010 2
b111101110010 D
b111101110010 L
b111101110010 _
b1110010 "
b1110010 6
b1110010 :
b1110010 Z
b1110010 c
b100100110 *
b100100110 ;
b100100110 O
b100100110 b
b101001 ?
b101001 V
1#
1,
#350
0,
#355
0F
b0 g
0l
1Q
1M
0J
b1000000001000 9
b1000000001000 W
b1000000001000 X
1Y
b101000 ?
b101000 V
0#
b110 )
b110 1
b110 E
b110 H
b110 d
1,
#360
0,
#365
1`
1\
b1000000111000 9
b1000000111000 W
b1000000111000 X
b10 $
b10 5
b10 <
b10 S
b111 %
b111 4
b111 =
0Y
b1110010 [
b1000110100 (
b1000110100 2
b1000110100 D
b1000110100 L
b1000110100 _
b110100 "
b110100 6
b110100 :
b110100 Z
b110100 c
b100100111 *
b100100111 ;
b100100111 O
b100100111 b
b111001 ?
b111001 V
1#
1,
#370
0,
#375
0`
0\
b1000000001000 9
b1000000001000 W
b1000000001000 X
1Y
b111000 ?
b111000 V
0#
b1001000001 (
b1001000001 2
b1001000001 D
b1001000001 L
b1001000001 _
b1000001 "
b1000001 6
b1000001 :
b1000001 Z
b1000001 c
b100101000 *
b100101000 ;
b100101000 O
b100101000 b
1,
#380
0,
#385
b1 A
b1 G
b1 R
b1 f
b1 h
b1 &
b1 3
b1 0
b1 P
b1 T
b1 ]
b1 ^
b1 e
b1 k
b1 m
1F
b10 g
0Q
1U
0M
1J
b11010000010 9
b11010000010 W
b11010000010 X
b1 $
b1 5
b1 <
b1 S
b100 %
b100 4
b100 =
0Y
b1000001 [
b110110010 (
b110110010 2
b110110010 D
b110110010 L
b110110010 _
b10110010 "
b10110010 6
b10110010 :
b10110010 Z
b10110010 c
b100101001 *
b100101001 ;
b100101001 O
b100101001 b
b100001 ?
b100001 V
1#
1,
#390
0,
#395
b1 &
b1 3
b1 0
b1 P
b1 T
b1 ]
b1 ^
b1 e
b1 k
b1 m
0F
b0 g
1Q
0U
1M
0J
b1000000001000 9
b1000000001000 W
b1000000001000 X
1Y
b100000 ?
b100000 V
0#
b1 )
b1 1
b1 E
b1 H
b1 d
1,
#400
0,
#405
b110 a
b111 i
b111 A
b111 G
b111 R
b111 f
b111 h
b110 &
b110 3
b110 0
b110 P
b110 T
b110 ]
b110 ^
b110 e
b110 k
b110 m
1\
1F
b11 g
0Q
1J
b1011011100000 9
b1011011100000 W
b1011011100000 X
b10 $
b10 5
b10 <
b10 S
b1011 %
b1011 4
b1011 =
0Y
b10110010 [
b1000110100 (
b1000110100 2
b1000110100 D
b1000110100 L
b1000110100 _
b110100 "
b110100 6
b110100 :
b110100 Z
b110100 c
b100101010 *
b100101010 ;
b100101010 O
b100101010 b
b1011001 ?
b1011001 V
1#
1,
#410
0,
#415
0F
b0 g
1Q
0\
0J
b111 &
b111 3
b111 0
b111 P
b111 T
b111 ]
b111 ^
b111 e
b111 k
b111 m
b1000000001000 9
b1000000001000 W
b1000000001000 X
bx a
1Y
b1101 i
b111 A
b111 G
b111 R
b111 f
b111 h
b1011000 ?
b1011000 V
0#
b1000101000 (
b1000101000 2
b1000101000 D
b1000101000 L
b1000101000 _
b101000 "
b101000 6
b101000 :
b101000 Z
b101000 c
b100101011 *
b100101011 ;
b100101011 O
b100101011 b
b111 )
b111 1
b111 E
b111 H
b111 d
1,
#420
0,
#425
b10 I
1'
1C
b11111 i
b1111 A
b1111 G
b1111 R
b1111 f
b1111 h
b1000 &
b1000 3
b1000 0
b1000 P
b1000 T
b1000 ]
b1000 ^
b1000 e
b1000 k
b1000 m
1U
0M
b1 g
0Q
1J
b1001000010 9
b1001000010 W
b1001000010 X
b1000 $
b1000 5
b1000 <
b1000 S
b10 %
b10 4
b10 =
0Y
b101000 [
b100000010000 (
b100000010000 2
b100000010000 D
b100000010000 L
b100000010000 _
b10000 "
b10000 6
b10000 :
b10000 Z
b10000 c
b100101100 *
b100101100 ;
b100101100 O
b100101100 b
b10001 ?
b10001 V
1#
1,
#430
0,
#435
b111 A
b111 G
b111 R
b111 f
b111 h
b111 &
b111 3
b111 0
b111 P
b111 T
b111 ]
b111 ^
b111 e
b111 k
b111 m
b0 g
1Q
0U
1M
0J
b1000000001000 9
b1000000001000 W
b1000000001000 X
1Y
1@
b10100 ?
b10100 V
0#
b10 K
1,
#440
0,
#445
b1000000001000 9
b1000000001000 W
b1000000001000 X
b0 $
b0 5
b0 <
b0 S
b1 %
b1 4
b1 =
0Y
b10000 [
b0 (
b0 2
b0 D
b0 L
b0 _
b0 "
b0 6
b0 :
b0 Z
b0 c
b100101101 *
b100101101 ;
b100101101 O
b100101101 b
b1101 ?
b1101 V
1#
1,
#450
0,
#455
1Y
b1100 ?
b1100 V
0#
b1000000 (
b1000000 2
b1000000 D
b1000000 L
b1000000 _
b1000000 "
b1000000 6
b1000000 :
b1000000 Z
b1000000 c
b100101110 *
b100101110 ;
b100101110 O
b100101110 b
1,
#460
0,
#465
b11 I
1!
1B
b0 A
b0 G
b0 R
b0 f
b0 h
b0 &
b0 3
b0 0
b0 P
b0 T
b0 ]
b0 ^
b0 e
b0 k
b0 m
1F
b10 g
0Q
1U
0M
1J
b11010000010 9
b11010000010 W
b11010000010 X
b100 %
b100 4
b100 =
0Y
b1000000 [
b10000000 (
b10000000 2
b10000000 D
b10000000 L
b10000000 _
b10000000 "
b10000000 6
b10000000 :
b10000000 Z
b10000000 c
b100101111 *
b100101111 ;
b100101111 O
b100101111 b
b100101 ?
b100101 V
1#
1,
#470
0,
#475
b0 &
b0 3
b0 0
b0 P
b0 T
b0 ]
b0 ^
b0 e
b0 k
b0 m
0F
b0 g
1Q
0U
1M
0J
b1000000001000 9
b1000000001000 W
b1000000001000 X
1Y
18
b100110 ?
b100110 V
0#
b11 K
b0 )
b0 1
b0 E
b0 H
b0 d
1,
#480
0,
#485
1N
0M
b100000001000 9
b100000001000 W
b100000001000 X
b1000 %
b1000 4
b1000 =
0Y
b10000000 [
b1 (
b1 2
b1 D
b1 L
b1 _
b1 "
b1 6
b1 :
b1 Z
b1 c
b100110000 *
b100110000 ;
b100110000 O
b100110000 b
b1000111 ?
b1000111 V
1#
1,
#490
0,
#495
1M
0N
b1000000001000 9
b1000000001000 W
b1000000001000 X
1Y
b1000110 ?
b1000110 V
0#
b1000011 (
b1000011 2
b1000011 D
b1000011 L
b1000011 _
b1000011 "
b1000011 6
b1000011 :
b1000011 Z
b1000011 c
b1 *
b1 ;
b1 O
b1 b
1,
