Proyecto_Procesador/uP_tb.vcd
$date
	Thu Nov 19 12:12:00 2020
$end
$version
	Icarus Verilog
$end
$timescale
	1ps
$end
$scope module testbench $end
$var wire 1 ! z_flag $end
$var wire 8 " program_byte [7:0] $end
$var wire 1 # phase $end
$var wire 4 $ oprnd [3:0] $end
$var wire 4 % instr [3:0] $end
$var wire 4 & data_bus [3:0] $end
$var wire 1 ' c_flag $end
$var wire 12 ( address_RAM [11:0] $end
$var wire 4 ) accu [3:0] $end
$var wire 12 * PC [11:0] $end
$var wire 4 + FF_out [3:0] $end
$var reg 1 , clock $end
$var reg 4 - pushbuttons [3:0] $end
$var reg 1 . reset $end
$scope module uPmodule $end
$var wire 4 / DATA_BUS [3:0] $end
$var wire 4 0 accu [3:0] $end
$var wire 12 1 address_RAM [11:0] $end
$var wire 1 ' c_flag $end
$var wire 1 , clock $end
$var wire 4 2 data_bus [3:0] $end
$var wire 4 3 instr [3:0] $end
$var wire 4 4 oprnd [3:0] $end
$var wire 8 5 program_byte [7:0] $end
$var wire 4 6 pushbuttons [3:0] $end
$var wire 1 . reset $end
$var wire 1 ! z_flag $end
$var wire 1 # phase $end
$var wire 1 7 Z_FLAG $end
$var wire 13 8 SC [12:0] $end
$var wire 8 9 PROGRAM_BYTE [7:0] $end
$var wire 12 : PC [11:0] $end
$var wire 4 ; OPRND [3:0] $end
$var wire 4 < INSTR [3:0] $end
$var wire 4 = FF_out [3:0] $end
$var wire 7 > DECODE_address [6:0] $end
$var wire 1 ? C_FLAG $end
$var wire 4 @ ALU_OUT [3:0] $end
$var wire 1 A ALUZ $end
$var wire 1 B ALUC $end
$var wire 12 C ADDRESS_ram [11:0] $end
$var wire 4 D ACCUU [3:0] $end
$scope module FASE $end
$var wire 1 , clk $end
$var wire 1 . reset $end
$var reg 1 # Y $end
$upscope $end
$scope module acumulador $end
$var wire 1 , clk $end
$var wire 1 E enable $end
$var wire 1 . reset $end
$var wire 4 F D [3:0] $end
$var reg 4 G Y [3:0] $end
$upscope $end
$scope module banderas $end
$var wire 2 H D [1:0] $end
$var wire 1 , clk $end
$var wire 1 I enable $end
$var wire 1 . reset $end
$var reg 2 J Y [1:0] $end
$upscope $end
$scope module contador $end
$var wire 12 K Bload [11:0] $end
$var wire 1 L ENABLE $end
$var wire 1 M LOAD $end
$var wire 1 , clk $end
$var wire 1 . reset $end
$var reg 12 N Y [11:0] $end
$upscope $end
$scope module deALU $end
$var wire 4 O Y [3:0] $end
$var wire 1 P enable $end
$var wire 4 Q D [3:0] $end
$upscope $end
$scope module delfetch $end
$var wire 4 R D [3:0] $end
$var wire 4 S Y [3:0] $end
$var wire 1 T enable $end
$upscope $end
$scope module dicode $end
$var wire 7 U direccion [6:0] $end
$var wire 13 V senal [12:0] $end
$var reg 13 W datos [12:0] $end
$upscope $end
$scope module ftch $end
$var wire 1 , clk $end
$var wire 1 X enable $end
$var wire 1 . reset $end
$var wire 8 Y D [7:0] $end
$var reg 8 Z Y [7:0] $end
$upscope $end
$scope module memram $end
$var wire 1 [ cs $end
$var wire 4 \ data [3:0] $end
$var wire 4 ] datain [3:0] $end
$var wire 12 ^ direccion [11:0] $end
$var wire 1 _ we $end
$var reg 4 ` data_out [3:0] $end
$upscope $end
$scope module opcode $end
$var wire 12 a direccion [11:0] $end
$var wire 8 b salida [7:0] $end
$upscope $end
$scope module operaciones $end
$var wire 4 c A [3:0] $end
$var wire 4 d B [3:0] $end
$var wire 3 e selector [2:0] $end
$var wire 4 f Y [3:0] $end
$var reg 1 B C $end
$var reg 5 g RESalu [4:0] $end
$var reg 1 A ZERO $end
$upscope $end
$scope module pushes $end
$var wire 4 h D [3:0] $end
$var wire 4 i Y [3:0] $end
$var wire 1 j enable $end
$upscope $end
$scope module salida $end
$var wire 4 k D [3:0] $end
$var wire 1 , clk $end
$var wire 1 l enable $end
$var wire 1 . reset $end
$var reg 4 m Y [3:0] $end
$upscope $end
$upscope $end
$upscope $end
$enddefinitions $end
#0
$dumpvars
bx m
xl
bx k
xj
bx i
b110 h
bx g
bx f
bx e
bx d
bx c
bx b
bx a
bx `
x_
bx ^
bx ]
bx \
x[
bx Z
bx Y
xX
bx W
bx V
bx U
xT
bx S
bx R
bx Q
xP
bx O
bx N
xM
xL
bx K
bx J
xI
bx H
bx G
bx F
xE
bx D
bx C
xB
xA
bx @
x?
bx >
bx =
bx <
bx ;
bx :
bx 9
bx 8
x7
b110 6
bx 5
bx 4
bx 3
bx 2
bx 1
bx 0
bx /
0.
b110 -
0,
bx +
bx *
bx )
bx (
x'
bx &
bx %
bx $
x#
bx "
x!
$end
#2
b0 &
b0 2
b0 /
b0 O
b0 S
b0 \
b0 ]
b0 d
b0 i
b0 k
0l
0E
b0 e
0j
1P
0T
0_
0[
1L
0M
0I
b1000000001000 8
b1000000001000 V
b1000000001000 W
0B
b0 @
b0 F
b0 Q
b0 f
1X
0!
07
0'
0?
b0 $
b0 4
b0 ;
b0 R
b0 %
b0 3
b0 <
b1 H
1A
b0 g
b0 >
b0 U
0#
b0 J
b1001010 (
b1001010 1
b1001010 C
b1001010 K
b1001010 ^
b1001010 "
b1001010 5
b1001010 9
b1001010 Y
b1001010 b
b0 *
b0 :
b0 N
b0 a
b0 Z
b0 )
b0 0
b0 D
b0 G
b0 c
b0 +
b0 =
b0 m
1.
#3
0.
#5
b1010 @
b1010 F
b1010 Q
b1010 f
b0 H
0A
b1010 g
b1010 &
b1010 2
b1010 /
b1010 O
b1010 S
b1010 \
b1010 ]
b1010 d
b1010 i
b1010 k
1E
b10 e
0P
1T
0L
1I
b11010000010 8
b11010000010 V
b11010000010 W
b1010 $
b1010 4
b1010 ;
b1010 R
b100 %
b100 3
b100 <
0X
b1001010 Z
b101010100011 (
b101010100011 1
b101010100011 C
b101010100011 K
b101010100011 ^
b10100011 "
b10100011 5
b10100011 9
b10100011 Y
b10100011 b
b1 *
b1 :
b1 N
b1 a
b100001 >
b100001 U
1#
1,
#10
0,
#15
b1010 &
b1010 2
b1010 /
b1010 O
b1010 S
b1010 \
b1010 ]
b1010 d
b1010 i
b1010 k
0E
b0 e
1P
0T
1L
0I
b1000000001000 8
b1000000001000 V
b1000000001000 W
1X
b100000 >
b100000 U
0#
b1010 )
b1010 0
b1010 D
b1010 G
b1010 c
1,
#20
0,
#25
b1101 @
b1101 F
b1101 Q
b1101 f
b1101 g
b11 &
b11 2
b11 /
b11 O
b11 S
b11 \
b11 ]
b11 d
b11 i
b11 k
1E
b11 e
0P
1T
0L
1I
b11011000010 8
b11011000010 V
b11011000010 W
b11 $
b11 4
b11 ;
b11 R
b1010 %
b1010 3
b1010 <
0X
b10100011 Z
b1111010000 (
b1111010000 1
b1111010000 C
b1111010000 K
b1111010000 ^
b11010000 "
b11010000 5
b11010000 9
b11010000 Y
b11010000 b
b10 *
b10 :
b10 N
b10 a
b1010001 >
b1010001 U
1#
1,
#30
0,
#35
b1101 &
b1101 2
b1101 /
b1101 O
b1101 S
b1101 \
b1101 ]
b1101 d
b1101 i
b1101 k
0E
b0 e
1P
0T
1L
0I
b1000000001000 8
b1000000001000 V
b1000000001000 W
0B
b1101 @
b1101 F
b1101 Q
b1101 f
1X
b0 H
0A
b1101 g
b1010000 >
b1010000 U
0#
b1101 )
b1101 0
b1101 D
b1101 G
b1101 c
1,
#40
0,
#45
1l
0L
b1001 8
b1001 V
b1001 W
b0 $
b0 4
b0 ;
b0 R
b1101 %
b1101 3
b1101 <
0X
b11010000 Z
b1010000 (
b1010000 1
b1010000 C
b1010000 K
b1010000 ^
b1010000 "
b1010000 5
b1010000 9
b1010000 Y
b1010000 b
b11 *
b11 :
b11 N
b11 a
b1101001 >
b1101001 U
1#
1,
#50
0,
#55
0l
1L
b1000000001000 8
b1000000001000 V
b1000000001000 W
1X
b1101000 >
b1101000 U
0#
b1101 +
b1101 =
b1101 m
1,
#60
0,
#65
b110 @
b110 F
b110 Q
b110 f
b110 g
b110 &
b110 2
b110 /
b110 O
b110 S
b110 \
b110 ]
b110 d
b110 i
b110 k
1E
b10 e
1j
0P
1I
0L
b11010000100 8
b11010000100 V
b11010000100 W
b101 %
b101 3
b101 <
0X
b1010000 Z
b100110 (
b100110 1
b100110 C
b100110 K
b100110 ^
b100110 "
b100110 5
b100110 9
b100110 Y
b100110 b
b100 *
b100 :
b100 N
b100 a
b101001 >
b101001 U
1#
1,
#70
0,
#75
0E
b0 e
0j
1P
1L
0I
b1000000001000 8
b1000000001000 V
b1000000001000 W
1X
b101000 >
b101000 U
0#
b110 )
b110 0
b110 D
b110 G
b110 c
1,
#80
0,
#85
b0 @
b0 F
b0 Q
b0 f
b1 H
1A
b0 g
b110 &
b110 2
b110 /
b110 O
b110 S
b110 \
b110 ]
b110 d
b110 i
b110 k
b1 e
1T
0P
0L
1I
b1001000010 8
b1001000010 V
b1001000010 W
b110 $
b110 4
b110 ;
b110 R
b10 %
b10 3
b10 <
0X
b100110 Z
b11011100110 (
b11011100110 1
b11011100110 C
b11011100110 K
b11011100110 ^
b11100110 "
b11100110 5
b11100110 9
b11100110 Y
b11100110 b
b101 *
b101 :
b101 N
b101 a
b10001 >
b10001 U
1#
1,
#90
0,
#95
b110 @
b110 F
b110 Q
b110 f
b0 H
0A
b110 g
b110 &
b110 2
b110 /
b110 O
b110 S
b110 \
b110 ]
b110 d
b110 i
b110 k
b0 e
1P
0T
1L
0I
b1000000001000 8
b1000000001000 V
b1000000001000 W
1X
1!
17
b10010 >
b10010 U
0#
b1 J
1,
#100
0,
#105
b1001 @
b1001 F
b1001 Q
b1001 f
b1001 g
1E
b100 e
0P
1T
0L
1I
b11100000010 8
b11100000010 V
b11100000010 W
b1110 %
b1110 3
b1110 <
0X
b11100110 Z
b11001110010 (
b11001110010 1
b11001110010 C
b11001110010 K
b11001110010 ^
b1110010 "
b1110010 5
b1110010 9
b1110010 Y
b1110010 b
b110 *
b110 :
b110 N
b110 a
b1110011 >
b1110011 U
1#
1,
#110
0,
#115
b1001 &
b1001 2
b1001 /
b1001 O
b1001 S
b1001 \
b1001 ]
b1001 d
b1001 i
b1001 k
0E
b0 e
1P
0T
1L
0I
b1000000001000 8
b1000000001000 V
b1000000001000 W
b1001 @
b1001 F
b1001 Q
b1001 f
1X
0!
07
b1001 g
b1110000 >
b1110000 U
0#
b0 J
b1001 )
b1001 0
b1001 D
b1001 G
b1001 c
1,
#120
0,
#125
1_
1[
b1000000111000 8
b1000000111000 V
b1000000111000 W
b10 $
b10 4
b10 ;
b10 R
b111 %
b111 3
b111 <
0X
b1110010 Z
b1000110100 (
b1000110100 1
b1000110100 C
b1000110100 K
b1000110100 ^
b110100 "
b110100 5
b110100 9
b110100 Y
b110100 b
b111 *
b111 :
b111 N
b111 a
b111001 >
b111001 U
1#
1,
#130
0,
#135
0_
0[
b1000000001000 8
b1000000001000 V
b1000000001000 W
1X
b111000 >
b111000 U
0#
b1001000000 (
b1001000000 1
b1001000000 C
b1001000000 K
b1001000000 ^
b1000000 "
b1000000 5
b1000000 9
b1000000 Y
b1000000 b
b1000 *
b1000 :
b1000 N
b1000 a
1,
#140
0,
#145
b0 @
b0 F
b0 Q
b0 f
b1 H
1A
b0 g
b0 &
b0 2
b0 /
b0 O
b0 S
b0 \
b0 ]
b0 d
b0 i
b0 k
1E
b10 e
0P
1T
0L
1I
b11010000010 8
b11010000010 V
b11010000010 W
b0 $
b0 4
b0 ;
b0 R
b100 %
b100 3
b100 <
0X
b1000000 Z
b1100010 (
b1100010 1
b1100010 C
b1100010 K
b1100010 ^
b1100010 "
b1100010 5
b1100010 9
b1100010 Y
b1100010 b
b1001 *
b1001 :
b1001 N
b1001 a
b100001 >
b100001 U
1#
1,
#150
0,
#155
b0 &
b0 2
b0 /
b0 O
b0 S
b0 \
b0 ]
b0 d
b0 i
b0 k
0E
b0 e
1P
0T
1L
0I
b1000000001000 8
b1000000001000 V
b1000000001000 W
1X
1!
17
b100010 >
b100010 U
0#
b1 J
b0 )
b0 0
b0 D
b0 G
b0 c
1,
#160
0,
#165
b1001 `
b1001 @
b1001 F
b1001 Q
b1001 f
b0 H
0A
b1001 g
b1001 &
b1001 2
b1001 /
b1001 O
b1001 S
b1001 \
b1001 ]
b1001 d
b1001 i
b1001 k
1[
1E
b10 e
0P
1I
b1011010100000 8
b1011010100000 V
b1011010100000 W
b10 $
b10 4
b10 ;
b10 R
b110 %
b110 3
b110 <
0X
b1100010 Z
b1000110100 (
b1000110100 1
b1000110100 C
b1000110100 K
b1000110100 ^
b110100 "
b110100 5
b110100 9
b110100 Y
b110100 b
b1010 *
b1010 :
b1010 N
b1010 a
b110011 >
b110011 U
1#
1,
#170
0,
#175
0E
b0 e
1P
0[
0I
b1001 &
b1001 2
b1001 /
b1001 O
b1001 S
b1001 \
b1001 ]
b1001 d
b1001 i
b1001 k
b1000000001000 8
b1000000001000 V
b1000000001000 W
bx `
1X
0!
07
b110000 >
b110000 U
0#
b0 J
b1001000010 (
b1001000010 1
b1001000010 C
b1001000010 K
b1001000010 ^
b1000010 "
b1000010 5
b1000010 9
b1000010 Y
b1000010 b
b1011 *
b1011 :
b1011 N
b1011 a
b1001 )
b1001 0
b1001 D
b1001 G
b1001 c
1,
#180
0,
#185
b10 @
b10 F
b10 Q
b10 f
b10 g
b10 &
b10 2
b10 /
b10 O
b10 S
b10 \
b10 ]
b10 d
b10 i
b10 k
1T
0L
1E
b10 e
0P
1I
b11010000010 8
b11010000010 V
b11010000010 W
b100 %
b100 3
b100 <
0X
b1000010 Z
b1001110100 (
b1001110100 1
b1001110100 C
b1001110100 K
b1001110100 ^
b1110100 "
b1110100 5
b1110100 9
b1110100 Y
b1110100 b
b1100 *
b1100 :
b1100 N
b1100 a
b100001 >
b100001 U
1#
1,
#190
0,
#195
b10 &
b10 2
b10 /
b10 O
b10 S
b10 \
b10 ]
b10 d
b10 i
b10 k
0E
b0 e
1P
0T
1L
0I
b1000000001000 8
b1000000001000 V
b1000000001000 W
1X
b100000 >
b100000 U
0#
b10 )
b10 0
b10 D
b10 G
b10 c
1,
#200
0,
#205
1_
1[
b1000000111000 8
b1000000111000 V
b1000000111000 W
b100 $
b100 4
b100 ;
b100 R
b111 %
b111 3
b111 <
0X
b1110100 Z
b10001000100 (
b10001000100 1
b10001000100 C
b10001000100 K
b10001000100 ^
b1000100 "
b1000100 5
b1000100 9
b1000100 Y
b1000100 b
b1101 *
b1101 :
b1101 N
b1101 a
b111001 >
b111001 U
1#
1,
#210
0,
#215
0_
0[
b1000000001000 8
b1000000001000 V
b1000000001000 W
1X
b111000 >
b111000 U
0#
b10001001000 (
b10001001000 1
b10001001000 C
b10001001000 K
b10001001000 ^
b1001000 "
b1001000 5
b1001000 9
b1001000 Y
b1001000 b
b1110 *
b1110 :
b1110 N
b1110 a
1,
#220
0,
#225
b1000 @
b1000 F
b1000 Q
b1000 f
b1000 g
b1000 &
b1000 2
b1000 /
b1000 O
b1000 S
b1000 \
b1000 ]
b1000 d
b1000 i
b1000 k
1E
b10 e
0P
1T
0L
1I
b11010000010 8
b11010000010 V
b11010000010 W
b1000 $
b1000 4
b1000 ;
b1000 R
b100 %
b100 3
b100 <
0X
b1001000 Z
b100010110100 (
b100010110100 1
b100010110100 C
b100010110100 K
b100010110100 ^
b10110100 "
b10110100 5
b10110100 9
b10110100 Y
b10110100 b
b1111 *
b1111 :
b1111 N
b1111 a
b100001 >
b100001 U
1#
1,
#230
0,
#235
b1000 &
b1000 2
b1000 /
b1000 O
b1000 S
b1000 \
b1000 ]
b1000 d
b1000 i
b1000 k
0E
b0 e
1P
0T
1L
0I
b1000000001000 8
b1000000001000 V
b1000000001000 W
1X
b100000 >
b100000 U
0#
b1000 )
b1000 0
b1000 D
b1000 G
b1000 c
1,
#240
0,
#245
b10 `
b0 H
0B
b1010 @
b1010 F
b1010 Q
b1010 f
b1010 g
b10 &
b10 2
b10 /
b10 O
b10 S
b10 \
b10 ]
b10 d
b10 i
b10 k
1[
1E
b11 e
0P
1I
b1011011100000 8
b1011011100000 V
b1011011100000 W
b100 $
b100 4
b100 ;
b100 R
b1011 %
b1011 3
b1011 <
0X
b10110100 Z
b10001000100 (
b10001000100 1
b10001000100 C
b10001000100 K
b10001000100 ^
b1000100 "
b1000100 5
b1000100 9
b1000100 Y
b1000100 b
b10000 *
b10000 :
b10000 N
b10000 a
b1011001 >
b1011001 U
1#
1,
#250
0,
#255
0E
b0 e
1P
0[
0I
b1010 &
b1010 2
b1010 /
b1010 O
b1010 S
b1010 \
b1010 ]
b1010 d
b1010 i
b1010 k
b1000000001000 8
b1000000001000 V
b1000000001000 W
bx `
b1010 @
b1010 F
b1010 Q
b1010 f
1X
b1010 g
b1011000 >
b1011000 U
0#
b10000110010 (
b10000110010 1
b10000110010 C
b10000110010 K
b10000110010 ^
b110010 "
b110010 5
b110010 9
b110010 Y
b110010 b
b10001 *
b10001 :
b10001 N
b10001 a
b1010 )
b1010 0
b1010 D
b1010 G
b1010 c
1,
#260
0,
#265
b0 H
0B
b1001 `
b1 @
b1 F
b1 Q
b1 f
b1 g
b1001 &
b1001 2
b1001 /
b1001 O
b1001 S
b1001 \
b1001 ]
b1001 d
b1001 i
b1001 k
b1 e
0P
1[
1I
b1001001100000 8
b1001001100000 V
b1001001100000 W
b10 $
b10 4
b10 ;
b10 R
b11 %
b11 3
b11 <
0X
b110010 Z
b1000110100 (
b1000110100 1
b1000110100 C
b1000110100 K
b1000110100 ^
b110100 "
b110100 5
b110100 9
b110100 Y
b110100 b
b10010 *
b10010 :
b10010 N
b10010 a
b11001 >
b11001 U
1#
1,
#270
0,
#275
b1010 @
b1010 F
b1010 Q
b1010 f
b1010 g
b0 e
1P
0[
0I
b1010 &
b1010 2
b1010 /
b1010 O
b1010 S
b1010 \
b1010 ]
b1010 d
b1010 i
b1010 k
b1000000001000 8
b1000000001000 V
b1000000001000 W
bx `
1X
b11000 >
b11000 U
0#
b1011110100 (
b1011110100 1
b1011110100 C
b1011110100 K
b1011110100 ^
b11110100 "
b11110100 5
b11110100 9
b11110100 Y
b11110100 b
b10011 *
b10011 :
b10011 N
b10011 a
1,
#280
0,
#285
b10 `
b1101 @
b1101 F
b1101 Q
b1101 f
b1101 g
b10 &
b10 2
b10 /
b10 O
b10 S
b10 \
b10 ]
b10 d
b10 i
b10 k
1E
b100 e
0P
1[
1I
b1011100100000 8
b1011100100000 V
b1011100100000 W
b100 $
b100 4
b100 ;
b100 R
b1111 %
b1111 3
b1111 <
0X
b11110100 Z
b10001000100 (
b10001000100 1
b10001000100 C
b10001000100 K
b10001000100 ^
b1000100 "
b1000100 5
b1000100 9
b1000100 Y
b1000100 b
b10100 *
b10100 :
b10100 N
b10100 a
b1111001 >
b1111001 U
1#
1,
#290
0,
#295
0E
b0 e
1P
0[
0I
b1101 &
b1101 2
b1101 /
b1101 O
b1101 S
b1101 \
b1101 ]
b1101 d
b1101 i
b1101 k
b1000000001000 8
b1000000001000 V
b1000000001000 W
bx `
b1101 @
b1101 F
b1101 Q
b1101 f
1X
b1101 g
b1111000 >
b1111000 U
0#
b10001001010 (
b10001001010 1
b10001001010 C
b10001001010 K
b10001001010 ^
b1001010 "
b1001010 5
b1001010 9
b1001010 Y
b1001010 b
b10101 *
b10101 :
b10101 N
b10101 a
b1101 )
b1101 0
b1101 D
b1101 G
b1101 c
1,
#300
0,
#305
b1010 @
b1010 F
b1010 Q
b1010 f
b1010 g
b1010 &
b1010 2
b1010 /
b1010 O
b1010 S
b1010 \
b1010 ]
b1010 d
b1010 i
b1010 k
b10 e
1T
0L
1E
0P
1I
b11010000010 8
b11010000010 V
b11010000010 W
b1010 $
b1010 4
b1010 ;
b1010 R
b100 %
b100 3
b100 <
0X
b1001010 Z
b101010100101 (
b101010100101 1
b101010100101 C
b101010100101 K
b101010100101 ^
b10100101 "
b10100101 5
b10100101 9
b10100101 Y
b10100101 b
b10110 *
b10110 :
b10110 N
b10110 a
b100001 >
b100001 U
1#
1,
#310
0,
#315
b1010 &
b1010 2
b1010 /
b1010 O
b1010 S
b1010 \
b1010 ]
b1010 d
b1010 i
b1010 k
0E
b0 e
1P
0T
1L
0I
b1000000001000 8
b1000000001000 V
b1000000001000 W
1X
b100000 >
b100000 U
0#
b1010 )
b1010 0
b1010 D
b1010 G
b1010 c
1,
#320
0,
#325
b1111 @
b1111 F
b1111 Q
b1111 f
b1111 g
b101 &
b101 2
b101 /
b101 O
b101 S
b101 \
b101 ]
b101 d
b101 i
b101 k
1E
b11 e
0P
1T
0L
1I
b11011000010 8
b11011000010 V
b11011000010 W
b101 $
b101 4
b101 ;
b101 R
b1010 %
b1010 3
b1010 <
0X
b10100101 Z
b10100010000 (
b10100010000 1
b10100010000 C
b10100010000 K
b10100010000 ^
b10000 "
b10000 5
b10000 9
b10000 Y
b10000 b
b10111 *
b10111 :
b10111 N
b10111 a
b1010001 >
b1010001 U
1#
1,
#330
0,
#335
b1111 &
b1111 2
b1111 /
b1111 O
b1111 S
b1111 \
b1111 ]
b1111 d
b1111 i
b1111 k
0E
b0 e
1P
0T
1L
0I
b1000000001000 8
b1000000001000 V
b1000000001000 W
b0 H
0B
b1111 @
b1111 F
b1111 Q
b1111 f
1X
b1111 g
b1010000 >
b1010000 U
0#
b1111 )
b1111 0
b1111 D
b1111 G
b1111 c
1,
#340
0,
#345
1M
0L
b100000001000 8
b100000001000 V
b100000001000 W
b0 $
b0 4
b0 ;
b0 R
b1 %
b1 3
b1 <
0X
b10000 Z
b10010110 (
b10010110 1
b10010110 C
b10010110 K
b10010110 ^
b10010110 "
b10010110 5
b10010110 9
b10010110 Y
b10010110 b
b11000 *
b11000 :
b11000 N
b11000 a
b1001 >
b1001 U
1#
1,
#350
0,
#355
1L
0M
b1000000001000 8
b1000000001000 V
b1000000001000 W
1X
b1000 >
b1000 U
0#
b10100000 (
b10100000 1
b10100000 C
b10100000 K
b10100000 ^
b10100000 "
b10100000 5
b10100000 9
b10100000 Y
b10100000 b
b10010110 *
b10010110 :
b10010110 N
b10010110 a
1,
#360
0,
#365
b0 &
b0 2
b0 /
b0 O
b0 S
b0 \
b0 ]
b0 d
b0 i
b0 k
1E
b11 e
0P
1T
1I
0L
b11011000010 8
b11011000010 V
b11011000010 W
b1010 %
b1010 3
b1010 <
0X
b10100000 Z
b0 (
b0 1
b0 C
b0 K
b0 ^
b0 "
b0 5
b0 9
b0 Y
b0 b
b10010111 *
b10010111 :
b10010111 N
b10010111 a
b1010001 >
b1010001 U
1#
1,
#370
0,
#375
b1111 &
b1111 2
b1111 /
b1111 O
b1111 S
b1111 \
b1111 ]
b1111 d
b1111 i
b1111 k
0E
b0 e
1P
0T
1L
0I
b1000000001000 8
b1000000001000 V
b1000000001000 W
1X
b1010000 >
b1010000 U
0#
1,
#380
0,
#385
b1000000001000 8
b1000000001000 V
b1000000001000 W
b0 %
b0 3
b0 <
0X
b0 Z
b11001 (
b11001 1
b11001 C
b11001 K
b11001 ^
b11001 "
b11001 5
b11001 9
b11001 Y
b11001 b
b10011000 *
b10011000 :
b10011000 N
b10011000 a
b1 >
b1 U
1#
1,
#390
0,
#395
1X
b0 >
b0 U
0#
b10100001 (
b10100001 1
b10100001 C
b10100001 K
b10100001 ^
b10100001 "
b10100001 5
b10100001 9
b10100001 Y
b10100001 b
b10011001 *
b10011001 :
b10011001 N
b10011001 a
1,
#400
0,
#405
1B
b0 @
b0 F
b0 Q
b0 f
b11 H
1A
b10000 g
b1 &
b1 2
b1 /
b1 O
b1 S
b1 \
b1 ]
b1 d
b1 i
b1 k
1E
b11 e
0P
1T
0L
1I
b11011000010 8
b11011000010 V
b11011000010 W
b1 $
b1 4
b1 ;
b1 R
b1010 %
b1010 3
b1010 <
0X
b10100001 Z
b100000000 (
b100000000 1
b100000000 C
b100000000 K
b100000000 ^
b0 "
b0 5
b0 9
b0 Y
b0 b
b10011010 *
b10011010 :
b10011010 N
b10011010 a
b1010001 >
b1010001 U
1#
1,
#410
0,
#415
b0 &
b0 2
b0 /
b0 O
b0 S
b0 \
b0 ]
b0 d
b0 i
b0 k
0E
b0 e
1P
0T
1L
0I
b1000000001000 8
b1000000001000 V
b1000000001000 W
0B
b0 @
b0 F
b0 Q
b0 f
1X
1!
17
1'
1?
b1 H
1A
b0 g
b1010110 >
b1010110 U
0#
b11 J
b0 )
b0 0
b0 D
b0 G
b0 c
1,
#420
0,
#425
1M
0L
b100000001000 8
b100000001000 V
b100000001000 W
b0 $
b0 4
b0 ;
b0 R
b0 %
b0 3
b0 <
0X
b0 Z
b11001 (
b11001 1
b11001 C
b11001 K
b11001 ^
b11001 "
b11001 5
b11001 9
b11001 Y
b11001 b
b10011011 *
b10011011 :
b10011011 N
b10011011 a
b111 >
b111 U
1#
1,
#430
0,
#435
1L
0M
b1000000001000 8
b1000000001000 V
b1000000001000 W
1X
b110 >
b110 U
0#
b1000001 (
b1000001 1
b1000001 C
b1000001 K
b1000001 ^
b1000001 "
b1000001 5
b1000001 9
b1000001 Y
b1000001 b
b11001 *
b11001 :
b11001 N
b11001 a
1,
#440
0,
#445
b1 @
b1 F
b1 Q
b1 f
b0 H
0A
b1 g
b1 &
b1 2
b1 /
b1 O
b1 S
b1 \
b1 ]
b1 d
b1 i
b1 k
1E
b10 e
0P
1T
1I
0L
b11010000010 8
b11010000010 V
b11010000010 W
b1 $
b1 4
b1 ;
b1 R
b100 %
b100 3
b100 <
0X
b1000001 Z
b110000000 (
b110000000 1
b110000000 C
b110000000 K
b110000000 ^
b10000000 "
b10000000 5
b10000000 9
b10000000 Y
b10000000 b
b11010 *
b11010 :
b11010 N
b11010 a
b100111 >
b100111 U
1#
1,
#450
0,
#455
b1 &
b1 2
b1 /
b1 O
b1 S
b1 \
b1 ]
b1 d
b1 i
b1 k
0E
b0 e
1P
0T
1L
0I
b1000000001000 8
b1000000001000 V
b1000000001000 W
1X
0!
07
0'
0?
b100000 >
b100000 U
0#
b0 J
b1 )
b1 0
b1 D
b1 G
b1 c
1,
#460
0,
#465
b1000000001000 8
b1000000001000 V
b1000000001000 W
b0 $
b0 4
b0 ;
b0 R
b1000 %
b1000 3
b1000 <
0X
b10000000 Z
b11001000 (
b11001000 1
b11001000 C
b11001000 K
b11001000 ^
b11001000 "
b11001000 5
b11001000 9
b11001000 Y
b11001000 b
b11011 *
b11011 :
b11011 N
b11011 a
b1000001 >
b1000001 U
1#
1,
#470
0,
#475
1X
b1000000 >
b1000000 U
0#
b1000000 (
b1000000 1
b1000000 C
b1000000 K
b1000000 ^
b1000000 "
b1000000 5
b1000000 9
b1000000 Y
b1000000 b
b11100 *
b11100 :
b11100 N
b11100 a
1,
#480
0,
#485
b0 @
b0 F
b0 Q
b0 f
b1 H
1A
b0 g
b0 &
b0 2
b0 /
b0 O
b0 S
b0 \
b0 ]
b0 d
b0 i
b0 k
1E
b10 e
0P
1T
0L
1I
b11010000010 8
b11010000010 V
b11010000010 W
b100 %
b100 3
b100 <
0X
b1000000 Z
b10000000 (
b10000000 1
b10000000 C
b10000000 K
b10000000 ^
b10000000 "
b10000000 5
b10000000 9
b10000000 Y
b10000000 b
b11101 *
b11101 :
b11101 N
b11101 a
b100001 >
b100001 U
1#
1,
#490
0,
#495
b0 &
b0 2
b0 /
b0 O
b0 S
b0 \
b0 ]
b0 d
b0 i
b0 k
0E
b0 e
1P
0T
1L
0I
b1000000001000 8
b1000000001000 V
b1000000001000 W
1X
1!
17
b100010 >
b100010 U
0#
b1 J
b0 )
b0 0
b0 D
b0 G
b0 c
1,
#500
0,
#505
1M
0L
b100000001000 8
b100000001000 V
b100000001000 W
b1000 %
b1000 3
b1000 <
0X
b10000000 Z
b11001000 (
b11001000 1
b11001000 C
b11001000 K
b11001000 ^
b11001000 "
b11001000 5
b11001000 9
b11001000 Y
b11001000 b
b11110 *
b11110 :
b11110 N
b11110 a
b1000011 >
b1000011 U
1#
1,
#510
0,
#515
1L
0M
b1000000001000 8
b1000000001000 V
b1000000001000 W
1X
b1000010 >
b1000010 U
0#
b10010001 (
b10010001 1
b10010001 C
b10010001 K
b10010001 ^
b10010001 "
b10010001 5
b10010001 9
b10010001 Y
b10010001 b
b11001000 *
b11001000 :
b11001000 N
b11001000 a
1,
#520
0,
#525
b1000000001000 8
b1000000001000 V
b1000000001000 W
b1 $
b1 4
b1 ;
b1 R
b1001 %
b1001 3
b1001 <
0X
b10010001 Z
b100101100 (
b100101100 1
b100101100 C
b100101100 K
b100101100 ^
b101100 "
b101100 5
b101100 9
b101100 Y
b101100 b
b11001001 *
b11001001 :
b11001001 N
b11001001 a
b1001011 >
b1001011 U
1#
1,
#530
0,
#535
1X
b1001010 >
b1001010 U
0#
b101010000 (
b101010000 1
b101010000 C
b101010000 K
b101010000 ^
b1010000 "
b1010000 5
b1010000 9
b1010000 Y
b1010000 b
b11001010 *
b11001010 :
b11001010 N
b11001010 a
1,
#540
0,
#545
b110 @
b110 F
b110 Q
b110 f
b0 H
0A
b110 g
b110 &
b110 2
b110 /
b110 O
b110 S
b110 \
b110 ]
b110 d
b110 i
b110 k
1E
b10 e
1j
0P
0L
1I
b11010000100 8
b11010000100 V
b11010000100 W
b0 $
b0 4
b0 ;
b0 R
b101 %
b101 3
b101 <
0X
b1010000 Z
b10010001 (
b10010001 1
b10010001 C
b10010001 K
b10010001 ^
b10010001 "
b10010001 5
b10010001 9
b10010001 Y
b10010001 b
b11001011 *
b11001011 :
b11001011 N
b11001011 a
b101011 >
b101011 U
1#
1,
#550
0,
#555
0E
b0 e
0j
1P
1L
0I
b1000000001000 8
b1000000001000 V
b1000000001000 W
1X
0!
07
b101000 >
b101000 U
0#
b0 J
b110 )
b110 0
b110 D
b110 G
b110 c
1,
#560
0,
