Proyecto_Procesador_TbKurt/uP_tb.vcd
$date
	Thu Nov 19 13:53:23 2020
$end
$version
	Icarus Verilog
$end
$timescale
	1ps
$end
$scope module testbench $end
$var wire 1 ! z_flag $end
$var wire 8 " program_byte [7:0] $end
$var wire 1 # phase $end
$var wire 4 $ oprnd [3:0] $end
$var wire 4 % instr [3:0] $end
$var wire 4 & data_bus [3:0] $end
$var wire 1 ' c_flag $end
$var wire 12 ( address_RAM [11:0] $end
$var wire 4 ) accu [3:0] $end
$var wire 12 * PC [11:0] $end
$var wire 4 + FF_out [3:0] $end
$var reg 1 , clock $end
$var reg 4 - pushbuttons [3:0] $end
$var reg 1 . reset $end
$var integer 32 / immediateDelay [31:0] $end
$var integer 32 0 jumpDelay [31:0] $end
$var integer 32 1 memoryDelay [31:0] $end
$var integer 32 2 nota [31:0] $end
$scope module uPmodule $end
$var wire 4 3 DATA_BUS [3:0] $end
$var wire 4 4 accu [3:0] $end
$var wire 12 5 address_RAM [11:0] $end
$var wire 1 ' c_flag $end
$var wire 1 , clock $end
$var wire 4 6 data_bus [3:0] $end
$var wire 4 7 instr [3:0] $end
$var wire 4 8 oprnd [3:0] $end
$var wire 8 9 program_byte [7:0] $end
$var wire 4 : pushbuttons [3:0] $end
$var wire 1 . reset $end
$var wire 1 ! z_flag $end
$var wire 1 # phase $end
$var wire 1 ; Z_FLAG $end
$var wire 13 < SC [12:0] $end
$var wire 8 = PROGRAM_BYTE [7:0] $end
$var wire 12 > PC [11:0] $end
$var wire 4 ? OPRND [3:0] $end
$var wire 4 @ INSTR [3:0] $end
$var wire 4 A FF_out [3:0] $end
$var wire 7 B DECODE_address [6:0] $end
$var wire 1 C C_FLAG $end
$var wire 4 D ALU_OUT [3:0] $end
$var wire 1 E ALUZ $end
$var wire 1 F ALUC $end
$var wire 12 G ADDRESS_ram [11:0] $end
$var wire 4 H ACCUU [3:0] $end
$scope module FASE $end
$var wire 1 , clk $end
$var wire 1 . reset $end
$var reg 1 # Y $end
$upscope $end
$scope module acumulador $end
$var wire 1 , clk $end
$var wire 1 I enable $end
$var wire 1 . reset $end
$var wire 4 J D [3:0] $end
$var reg 4 K Y [3:0] $end
$upscope $end
$scope module banderas $end
$var wire 2 L D [1:0] $end
$var wire 1 , clk $end
$var wire 1 M enable $end
$var wire 1 . reset $end
$var reg 2 N Y [1:0] $end
$upscope $end
$scope module contador $end
$var wire 12 O Bload [11:0] $end
$var wire 1 P ENABLE $end
$var wire 1 Q LOAD $end
$var wire 1 , clk $end
$var wire 1 . reset $end
$var reg 12 R Y [11:0] $end
$upscope $end
$scope module deALU $end
$var wire 4 S Y [3:0] $end
$var wire 1 T enable $end
$var wire 4 U D [3:0] $end
$upscope $end
$scope module delfetch $end
$var wire 4 V D [3:0] $end
$var wire 4 W Y [3:0] $end
$var wire 1 X enable $end
$upscope $end
$scope module dicode $end
$var wire 7 Y direccion [6:0] $end
$var wire 13 Z senal [12:0] $end
$var reg 13 [ datos [12:0] $end
$upscope $end
$scope module ftch $end
$var wire 1 , clk $end
$var wire 1 \ enable $end
$var wire 1 . reset $end
$var wire 8 ] D [7:0] $end
$var reg 8 ^ Y [7:0] $end
$upscope $end
$scope module memram $end
$var wire 1 _ cs $end
$var wire 4 ` data [3:0] $end
$var wire 4 a datain [3:0] $end
$var wire 12 b direccion [11:0] $end
$var wire 1 c we $end
$var reg 4 d data_out [3:0] $end
$upscope $end
$scope module opcode $end
$var wire 12 e direccion [11:0] $end
$var wire 8 f salida [7:0] $end
$upscope $end
$scope module operaciones $end
$var wire 4 g A [3:0] $end
$var wire 4 h B [3:0] $end
$var wire 3 i selector [2:0] $end
$var wire 4 j Y [3:0] $end
$var reg 1 F C $end
$var reg 5 k RESalu [4:0] $end
$var reg 1 E ZERO $end
$upscope $end
$scope module pushes $end
$var wire 4 l D [3:0] $end
$var wire 4 m Y [3:0] $end
$var wire 1 n enable $end
$upscope $end
$scope module salida $end
$var wire 4 o D [3:0] $end
$var wire 1 , clk $end
$var wire 1 p enable $end
$var wire 1 . reset $end
$var reg 4 q Y [3:0] $end
$upscope $end
$upscope $end
$upscope $end
$enddefinitions $end
#0
$dumpvars
bx q
xp
bx o
xn
bx m
b110 l
bx k
bx j
bx i
bx h
bx g
bx f
bx e
bx d
xc
bx b
bx a
bx `
x_
bx ^
bx ]
x\
bx [
bx Z
bx Y
xX
bx W
bx V
bx U
xT
bx S
bx R
xQ
xP
bx O
bx N
xM
bx L
bx K
bx J
xI
bx H
bx G
xF
xE
bx D
xC
bx B
bx A
bx @
bx ?
bx >
bx =
bx <
x;
b110 :
bx 9
bx 8
bx 7
bx 6
bx 5
bx 4
bx 3
b0 2
b100010100 1
b1010010000 0
b10000 /
0.
b110 -
0,
bx +
bx *
bx )
bx (
x'
bx &
bx %
bx $
x#
bx "
x!
$end
#2
b0 &
b0 6
b0 3
b0 S
b0 W
b0 `
b0 a
b0 h
b0 m
b0 o
0p
0I
b0 i
0n
1T
0X
0c
0_
1P
0Q
0M
b1000000001000 <
b1000000001000 Z
b1000000001000 [
0F
b0 D
b0 J
b0 U
b0 j
1\
0!
0;
0'
0C
b0 $
b0 8
b0 ?
b0 V
b0 %
b0 7
b0 @
b1 L
1E
b0 k
b0 B
b0 Y
0#
b0 N
b1001111 (
b1001111 5
b1001111 G
b1001111 O
b1001111 b
b1001111 "
b1001111 9
b1001111 =
b1001111 ]
b1001111 f
b0 *
b0 >
b0 R
b0 e
b0 ^
b0 )
b0 4
b0 H
b0 K
b0 g
b0 +
b0 A
b0 q
1.
#3
0.
#5
b1111 D
b1111 J
b1111 U
b1111 j
b0 L
0E
b1111 k
b1111 &
b1111 6
b1111 3
b1111 S
b1111 W
b1111 `
b1111 a
b1111 h
b1111 m
b1111 o
1I
b10 i
0T
1X
0P
1M
b11010000010 <
b11010000010 Z
b11010000010 [
b1111 $
b1111 8
b1111 ?
b1111 V
b100 %
b100 7
b100 @
0\
b1001111 ^
b111111011111 (
b111111011111 5
b111111011111 G
b111111011111 O
b111111011111 b
b11011111 "
b11011111 9
b11011111 =
b11011111 ]
b11011111 f
b1 *
b1 >
b1 R
b1 e
b100001 B
b100001 Y
1#
1,
#10
0,
#15
b1111 &
b1111 6
b1111 3
b1111 S
b1111 W
b1111 `
b1111 a
b1111 h
b1111 m
b1111 o
0I
b0 i
1T
0X
1P
0M
b1000000001000 <
b1000000001000 Z
b1000000001000 [
1\
b100000 B
b100000 Y
0#
b1111 )
b1111 4
b1111 H
b1111 K
b1111 g
1,
#16
b1000110 2
#20
0,
#25
1p
0P
b1001 <
b1001 Z
b1001 [
b1101 %
b1101 7
b1101 @
0\
b11011111 ^
b111101010001 (
b111101010001 5
b111101010001 G
b111101010001 O
b111101010001 b
b1010001 "
b1010001 9
b1010001 =
b1010001 ]
b1010001 f
b10 *
b10 >
b10 R
b10 e
b1101001 B
b1101001 Y
1#
1,
#30
0,
#35
0p
1P
b1000000001000 <
b1000000001000 Z
b1000000001000 [
1\
b1101000 B
b1101000 Y
0#
b1111 +
b1111 A
b1111 q
1,
#36
b1100111 2
#40
0,
#45
b110 D
b110 J
b110 U
b110 j
b110 k
b110 &
b110 6
b110 3
b110 S
b110 W
b110 `
b110 a
b110 h
b110 m
b110 o
1I
b10 i
1n
0T
1M
0P
b11010000100 <
b11010000100 Z
b11010000100 [
b1 $
b1 8
b1 ?
b1 V
b101 %
b101 7
b101 @
0\
b1010001 ^
b101000000 (
b101000000 5
b101000000 G
b101000000 O
b101000000 b
b1000000 "
b1000000 9
b1000000 =
b1000000 ]
b1000000 f
b11 *
b11 >
b11 R
b11 e
b101001 B
b101001 Y
1#
1,
#50
0,
#55
0I
b0 i
0n
1T
1P
0M
b1000000001000 <
b1000000001000 Z
b1000000001000 [
1\
b101000 B
b101000 Y
0#
b110 )
b110 4
b110 H
b110 K
b110 g
1,
#56
b10001000 2
#60
0,
#65
b1 L
1E
b0 D
b0 J
b0 U
b0 j
b0 k
b0 &
b0 6
b0 3
b0 S
b0 W
b0 `
b0 a
b0 h
b0 m
b0 o
1X
1I
b10 i
0T
0P
1M
b11010000010 <
b11010000010 Z
b11010000010 [
b0 $
b0 8
b0 ?
b0 V
b100 %
b100 7
b100 @
0\
b1000000 ^
b1001111 (
b1001111 5
b1001111 G
b1001111 O
b1001111 b
b1001111 "
b1001111 9
b1001111 =
b1001111 ]
b1001111 f
b100 *
b100 >
b100 R
b100 e
b100001 B
b100001 Y
1#
1,
#70
0,
#75
b0 &
b0 6
b0 3
b0 S
b0 W
b0 `
b0 a
b0 h
b0 m
b0 o
0I
b0 i
1T
0X
1P
0M
b1000000001000 <
b1000000001000 Z
b1000000001000 [
1\
1!
1;
b100010 B
b100010 Y
0#
b1 N
b0 )
b0 4
b0 H
b0 K
b0 g
1,
#80
0,
#85
b1111 D
b1111 J
b1111 U
b1111 j
b0 L
0E
b1111 k
b1111 &
b1111 6
b1111 3
b1111 S
b1111 W
b1111 `
b1111 a
b1111 h
b1111 m
b1111 o
1I
b10 i
0T
1X
0P
1M
b11010000010 <
b11010000010 Z
b11010000010 [
b1111 $
b1111 8
b1111 ?
b1111 V
0\
b1001111 ^
b111110101010 (
b111110101010 5
b111110101010 G
b111110101010 O
b111110101010 b
b10101010 "
b10101010 9
b10101010 =
b10101010 ]
b10101010 f
b101 *
b101 >
b101 R
b101 e
b100011 B
b100011 Y
1#
1,
#90
0,
#95
b1111 &
b1111 6
b1111 3
b1111 S
b1111 W
b1111 `
b1111 a
b1111 h
b1111 m
b1111 o
0I
b0 i
1T
0X
1P
0M
b1000000001000 <
b1000000001000 Z
b1000000001000 [
1\
0!
0;
b100000 B
b100000 Y
0#
b0 N
b1111 )
b1111 4
b1111 H
b1111 K
b1111 g
1,
#100
0,
#105
b10 L
1F
b1001 D
b1001 J
b1001 U
b1001 j
b11001 k
b1010 &
b1010 6
b1010 3
b1010 S
b1010 W
b1010 `
b1010 a
b1010 h
b1010 m
b1010 o
1I
b11 i
0T
1X
0P
1M
b11011000010 <
b11011000010 Z
b11011000010 [
b1010 $
b1010 8
b1010 ?
b1010 V
b1010 %
b1010 7
b1010 @
0\
b10101010 ^
b101000101000 (
b101000101000 5
b101000101000 G
b101000101000 O
b101000101000 b
b101000 "
b101000 9
b101000 =
b101000 ]
b101000 f
b110 *
b110 >
b110 R
b110 e
b1010001 B
b1010001 Y
1#
1,
#110
0,
#115
b0 L
0F
b1001 &
b1001 6
b1001 3
b1001 S
b1001 W
b1001 `
b1001 a
b1001 h
b1001 m
b1001 o
0I
b0 i
1T
0X
1P
0M
b1000000001000 <
b1000000001000 Z
b1000000001000 [
b1001 D
b1001 J
b1001 U
b1001 j
1\
1'
1C
b1001 k
b1010100 B
b1010100 Y
0#
b10 N
b1001 )
b1001 4
b1001 H
b1001 K
b1001 g
1,
#116
b10101001 2
#120
0,
#125
b1 D
b1 J
b1 U
b1 j
b1 k
b1000 &
b1000 6
b1000 3
b1000 S
b1000 W
b1000 `
b1000 a
b1000 h
b1000 m
b1000 o
b1 i
0T
1X
0P
1M
b1001000010 <
b1001000010 Z
b1001000010 [
b1000 $
b1000 8
b1000 ?
b1000 V
b10 %
b10 7
b10 @
0\
b101000 ^
b100001001010 (
b100001001010 5
b100001001010 G
b100001001010 O
b100001001010 b
b1001010 "
b1001010 9
b1001010 =
b1001010 ]
b1001010 f
b111 *
b111 >
b111 R
b111 e
b10101 B
b10101 Y
1#
1,
#130
0,
#135
b1001 D
b1001 J
b1001 U
b1001 j
b1001 k
b1001 &
b1001 6
b1001 3
b1001 S
b1001 W
b1001 `
b1001 a
b1001 h
b1001 m
b1001 o
b0 i
1T
0X
1P
0M
b1000000001000 <
b1000000001000 Z
b1000000001000 [
1\
0'
0C
b10000 B
b10000 Y
0#
b0 N
1,
#136
b11001010 2
#140
0,
#145
b1010 D
b1010 J
b1010 U
b1010 j
b1010 k
b1010 &
b1010 6
b1010 3
b1010 S
b1010 W
b1010 `
b1010 a
b1010 h
b1010 m
b1010 o
1I
b10 i
0T
1X
0P
1M
b11010000010 <
b11010000010 Z
b11010000010 [
b1010 $
b1010 8
b1010 ?
b1010 V
b100 %
b100 7
b100 @
0\
b1001010 ^
b101000101100 (
b101000101100 5
b101000101100 G
b101000101100 O
b101000101100 b
b101100 "
b101100 9
b101100 =
b101100 ]
b101100 f
b1000 *
b1000 >
b1000 R
b1000 e
b100001 B
b100001 Y
1#
1,
#150
0,
#155
b1010 &
b1010 6
b1010 3
b1010 S
b1010 W
b1010 `
b1010 a
b1010 h
b1010 m
b1010 o
0I
b0 i
1T
0X
1P
0M
b1000000001000 <
b1000000001000 Z
b1000000001000 [
1\
b100000 B
b100000 Y
0#
b1010 )
b1010 4
b1010 H
b1010 K
b1010 g
1,
#160
0,
#165
b10 L
1F
b1110 D
b1110 J
b1110 U
b1110 j
b11110 k
b1100 &
b1100 6
b1100 3
b1100 S
b1100 W
b1100 `
b1100 a
b1100 h
b1100 m
b1100 o
b1 i
0T
1X
0P
1M
b1001000010 <
b1001000010 Z
b1001000010 [
b1100 $
b1100 8
b1100 ?
b1100 V
b10 %
b10 7
b10 @
0\
b101100 ^
b110010100001 (
b110010100001 5
b110010100001 G
b110010100001 O
b110010100001 b
b10100001 "
b10100001 9
b10100001 =
b10100001 ]
b10100001 f
b1001 *
b1001 >
b1001 R
b1001 e
b10001 B
b10001 Y
1#
1,
#170
0,
#175
b0 L
0F
b1010 D
b1010 J
b1010 U
b1010 j
b1010 k
b1010 &
b1010 6
b1010 3
b1010 S
b1010 W
b1010 `
b1010 a
b1010 h
b1010 m
b1010 o
b0 i
1T
0X
1P
0M
b1000000001000 <
b1000000001000 Z
b1000000001000 [
1\
1'
1C
b10100 B
b10100 Y
0#
b10 N
1,
#176
b11101011 2
#180
0,
#185
b1011 D
b1011 J
b1011 U
b1011 j
b1011 k
b1 &
b1 6
b1 3
b1 S
b1 W
b1 `
b1 a
b1 h
b1 m
b1 o
1I
b11 i
0T
1X
0P
1M
b11011000010 <
b11011000010 Z
b11011000010 [
b1 $
b1 8
b1 ?
b1 V
b1010 %
b1010 7
b1010 @
0\
b10100001 ^
b111101011 (
b111101011 5
b111101011 G
b111101011 O
b111101011 b
b11101011 "
b11101011 9
b11101011 =
b11101011 ]
b11101011 f
b1010 *
b1010 >
b1010 R
b1010 e
b1010101 B
b1010101 Y
1#
1,
#190
0,
#195
b1011 &
b1011 6
b1011 3
b1011 S
b1011 W
b1011 `
b1011 a
b1011 h
b1011 m
b1011 o
0I
b0 i
1T
0X
1P
0M
b1000000001000 <
b1000000001000 Z
b1000000001000 [
b1011 D
b1011 J
b1011 U
b1011 j
1\
0'
0C
b1011 k
b1010000 B
b1010000 Y
0#
b0 N
b1011 )
b1011 4
b1011 H
b1011 K
b1011 g
1,
#196
b100001100 2
#200
0,
#205
b100 D
b100 J
b100 U
b100 j
b100 k
b100 i
1I
0T
1X
0P
1M
b11100000010 <
b11100000010 Z
b11100000010 [
b1011 $
b1011 8
b1011 ?
b1011 V
b1110 %
b1110 7
b1110 @
0\
b11101011 ^
b101111010000 (
b101111010000 5
b101111010000 G
b101111010000 O
b101111010000 b
b11010000 "
b11010000 9
b11010000 =
b11010000 ]
b11010000 f
b1011 *
b1011 >
b1011 R
b1011 e
b1110001 B
b1110001 Y
1#
1,
#210
0,
#215
b100 &
b100 6
b100 3
b100 S
b100 W
b100 `
b100 a
b100 h
b100 m
b100 o
0I
b0 i
1T
0X
1P
0M
b1000000001000 <
b1000000001000 Z
b1000000001000 [
b100 D
b100 J
b100 U
b100 j
1\
b100 k
b1110000 B
b1110000 Y
0#
b100 )
b100 4
b100 H
b100 K
b100 g
1,
#216
b101001110 2
#220
0,
#225
1p
0P
b1001 <
b1001 Z
b1001 [
b0 $
b0 8
b0 ?
b0 V
b1101 %
b1101 7
b1101 @
0\
b11010000 ^
b1010000 (
b1010000 5
b1010000 G
b1010000 O
b1010000 b
b1010000 "
b1010000 9
b1010000 =
b1010000 ]
b1010000 f
b1100 *
b1100 >
b1100 R
b1100 e
b1101001 B
b1101001 Y
1#
1,
#230
0,
#235
0p
1P
b1000000001000 <
b1000000001000 Z
b1000000001000 [
1\
b1101000 B
b1101000 Y
0#
b100 +
b100 A
b100 q
1,
#236
b1110 -
b1110 :
b1110 l
b101101111 2
#240
0,
#245
b1110 D
b1110 J
b1110 U
b1110 j
b1110 k
b1110 &
b1110 6
b1110 3
b1110 S
b1110 W
b1110 `
b1110 a
b1110 h
b1110 m
b1110 o
1I
b10 i
1n
0T
1M
0P
b11010000100 <
b11010000100 Z
b11010000100 [
b101 %
b101 7
b101 @
0\
b1010000 ^
b1110000 (
b1110000 5
b1110000 G
b1110000 O
b1110000 b
b1110000 "
b1110000 9
b1110000 =
b1110000 ]
b1110000 f
b1101 *
b1101 >
b1101 R
b1101 e
b101001 B
b101001 Y
1#
1,
#250
0,
#255
0I
b0 i
0n
1T
1P
0M
b1000000001000 <
b1000000001000 Z
b1000000001000 [
1\
b101000 B
b101000 Y
0#
b1110 )
b1110 4
b1110 H
b1110 K
b1110 g
1,
#256
b110010000 2
#260
0,
#265
1c
1_
b1000000111000 <
b1000000111000 Z
b1000000111000 [
b111 %
b111 7
b111 @
0\
b1110000 ^
b0 (
b0 5
b0 G
b0 O
b0 b
b0 "
b0 9
b0 =
b0 ]
b0 f
b1110 *
b1110 >
b1110 R
b1110 e
b111001 B
b111001 Y
1#
1,
#270
0,
#275
0c
0_
b1000000001000 <
b1000000001000 Z
b1000000001000 [
1\
b111000 B
b111000 Y
0#
b1001111 (
b1001111 5
b1001111 G
b1001111 O
b1001111 b
b1001111 "
b1001111 9
b1001111 =
b1001111 ]
b1001111 f
b1111 *
b1111 >
b1111 R
b1111 e
1,
#280
0,
#285
b1111 D
b1111 J
b1111 U
b1111 j
b1111 k
b1111 &
b1111 6
b1111 3
b1111 S
b1111 W
b1111 `
b1111 a
b1111 h
b1111 m
b1111 o
1I
b10 i
0T
1X
0P
1M
b11010000010 <
b11010000010 Z
b11010000010 [
b1111 $
b1111 8
b1111 ?
b1111 V
b100 %
b100 7
b100 @
0\
b1001111 ^
b111101110001 (
b111101110001 5
b111101110001 G
b111101110001 O
b111101110001 b
b1110001 "
b1110001 9
b1110001 =
b1110001 ]
b1110001 f
b10000 *
b10000 >
b10000 R
b10000 e
b100001 B
b100001 Y
1#
1,
#290
0,
#295
b1111 &
b1111 6
b1111 3
b1111 S
b1111 W
b1111 `
b1111 a
b1111 h
b1111 m
b1111 o
0I
b0 i
1T
0X
1P
0M
b1000000001000 <
b1000000001000 Z
b1000000001000 [
1\
b100000 B
b100000 Y
0#
b1111 )
b1111 4
b1111 H
b1111 K
b1111 g
1,
#300
0,
#305
1c
1_
b1000000111000 <
b1000000111000 Z
b1000000111000 [
b1 $
b1 8
b1 ?
b1 V
b111 %
b111 7
b111 @
0\
b1110001 ^
b100010001 (
b100010001 5
b100010001 G
b100010001 O
b100010001 b
b10001 "
b10001 9
b10001 =
b10001 ]
b10001 f
b10001 *
b10001 >
b10001 R
b10001 e
b111001 B
b111001 Y
1#
1,
#310
0,
#315
0c
0_
b1000000001000 <
b1000000001000 Z
b1000000001000 [
1\
b111000 B
b111000 Y
0#
b101001010 (
b101001010 5
b101001010 G
b101001010 O
b101001010 b
b1001010 "
b1001010 9
b1001010 =
b1001010 ]
b1001010 f
b10010 *
b10010 >
b10010 R
b10010 e
1,
#320
0,
#325
b1010 D
b1010 J
b1010 U
b1010 j
b1010 k
b1010 &
b1010 6
b1010 3
b1010 S
b1010 W
b1010 `
b1010 a
b1010 h
b1010 m
b1010 o
1I
b10 i
0T
1X
0P
1M
b11010000010 <
b11010000010 Z
b11010000010 [
b1010 $
b1010 8
b1010 ?
b1010 V
b100 %
b100 7
b100 @
0\
b1001010 ^
b101001110010 (
b101001110010 5
b101001110010 G
b101001110010 O
b101001110010 b
b1110010 "
b1110010 9
b1110010 =
b1110010 ]
b1110010 f
b10011 *
b10011 >
b10011 R
b10011 e
b100001 B
b100001 Y
1#
1,
#330
0,
#335
b1010 &
b1010 6
b1010 3
b1010 S
b1010 W
b1010 `
b1010 a
b1010 h
b1010 m
b1010 o
0I
b0 i
1T
0X
1P
0M
b1000000001000 <
b1000000001000 Z
b1000000001000 [
1\
b100000 B
b100000 Y
0#
b1010 )
b1010 4
b1010 H
b1010 K
b1010 g
1,
#340
0,
#345
1c
1_
b1000000111000 <
b1000000111000 Z
b1000000111000 [
b10 $
b10 8
b10 ?
b10 V
b111 %
b111 7
b111 @
0\
b1110010 ^
b1000100010 (
b1000100010 5
b1000100010 G
b1000100010 O
b1000100010 b
b100010 "
b100010 9
b100010 =
b100010 ]
b100010 f
b10100 *
b10100 >
b10100 R
b10100 e
b111001 B
b111001 Y
1#
1,
#350
0,
#355
0c
0_
b1000000001000 <
b1000000001000 Z
b1000000001000 [
1\
b111000 B
b111000 Y
0#
b1001000001 (
b1001000001 5
b1001000001 G
b1001000001 O
b1001000001 b
b1000001 "
b1000001 9
b1000001 =
b1000001 ]
b1000001 f
b10101 *
b10101 >
b10101 R
b10101 e
1,
#360
0,
#365
b1 D
b1 J
b1 U
b1 j
b1 k
b1 &
b1 6
b1 3
b1 S
b1 W
b1 `
b1 a
b1 h
b1 m
b1 o
1I
b10 i
0T
1X
0P
1M
b11010000010 <
b11010000010 Z
b11010000010 [
b1 $
b1 8
b1 ?
b1 V
b100 %
b100 7
b100 @
0\
b1000001 ^
b101110011 (
b101110011 5
b101110011 G
b101110011 O
b101110011 b
b1110011 "
b1110011 9
b1110011 =
b1110011 ]
b1110011 f
b10110 *
b10110 >
b10110 R
b10110 e
b100001 B
b100001 Y
1#
1,
#370
0,
#375
b1 &
b1 6
b1 3
b1 S
b1 W
b1 `
b1 a
b1 h
b1 m
b1 o
0I
b0 i
1T
0X
1P
0M
b1000000001000 <
b1000000001000 Z
b1000000001000 [
1\
b100000 B
b100000 Y
0#
b1 )
b1 4
b1 H
b1 K
b1 g
1,
#380
0,
#385
1c
1_
b1000000111000 <
b1000000111000 Z
b1000000111000 [
b11 $
b11 8
b11 ?
b11 V
b111 %
b111 7
b111 @
0\
b1110011 ^
b1100110011 (
b1100110011 5
b1100110011 G
b1100110011 O
b1100110011 b
b110011 "
b110011 9
b110011 =
b110011 ]
b110011 f
b10111 *
b10111 >
b10111 R
b10111 e
b111001 B
b111001 Y
1#
1,
#390
0,
#395
0c
0_
b1000000001000 <
b1000000001000 Z
b1000000001000 [
1\
b111000 B
b111000 Y
0#
b1101100000 (
b1101100000 5
b1101100000 G
b1101100000 O
b1101100000 b
b1100000 "
b1100000 9
b1100000 =
b1100000 ]
b1100000 f
b11000 *
b11000 >
b11000 R
b11000 e
1,
#400
0,
#405
b1110 d
b1110 D
b1110 J
b1110 U
b1110 j
b1110 k
b1110 &
b1110 6
b1110 3
b1110 S
b1110 W
b1110 `
b1110 a
b1110 h
b1110 m
b1110 o
1I
b10 i
0T
1M
1_
b1011010100000 <
b1011010100000 Z
b1011010100000 [
b0 $
b0 8
b0 ?
b0 V
b110 %
b110 7
b110 @
0\
b1100000 ^
b0 (
b0 5
b0 G
b0 O
b0 b
b0 "
b0 9
b0 =
b0 ]
b0 f
b11001 *
b11001 >
b11001 R
b11001 e
b110001 B
b110001 Y
1#
1,
#410
0,
#415
0I
b0 i
1T
0_
0M
b1110 &
b1110 6
b1110 3
b1110 S
b1110 W
b1110 `
b1110 a
b1110 h
b1110 m
b1110 o
b1000000001000 <
b1000000001000 Z
b1000000001000 [
bx d
1\
b110000 B
b110000 Y
0#
b1100001 (
b1100001 5
b1100001 G
b1100001 O
b1100001 b
b1100001 "
b1100001 9
b1100001 =
b1100001 ]
b1100001 f
b11010 *
b11010 >
b11010 R
b11010 e
b1110 )
b1110 4
b1110 H
b1110 K
b1110 g
1,
#420
0,
#425
b1111 d
b1111 D
b1111 J
b1111 U
b1111 j
b1111 k
b1111 &
b1111 6
b1111 3
b1111 S
b1111 W
b1111 `
b1111 a
b1111 h
b1111 m
b1111 o
1I
b10 i
0T
1_
1M
b1011010100000 <
b1011010100000 Z
b1011010100000 [
b1 $
b1 8
b1 ?
b1 V
0\
b1100001 ^
b100010001 (
b100010001 5
b100010001 G
b100010001 O
b100010001 b
b10001 "
b10001 9
b10001 =
b10001 ]
b10001 f
b11011 *
b11011 >
b11011 R
b11011 e
b110001 B
b110001 Y
1#
1,
#430
0,
#435
0I
b0 i
1T
0_
0M
b1111 &
b1111 6
b1111 3
b1111 S
b1111 W
b1111 `
b1111 a
b1111 h
b1111 m
b1111 o
b1000000001000 <
b1000000001000 Z
b1000000001000 [
bx d
1\
b110000 B
b110000 Y
0#
b101100010 (
b101100010 5
b101100010 G
b101100010 O
b101100010 b
b1100010 "
b1100010 9
b1100010 =
b1100010 ]
b1100010 f
b11100 *
b11100 >
b11100 R
b11100 e
b1111 )
b1111 4
b1111 H
b1111 K
b1111 g
1,
#440
0,
#445
b1010 d
b1010 D
b1010 J
b1010 U
b1010 j
b1010 k
b1010 &
b1010 6
b1010 3
b1010 S
b1010 W
b1010 `
b1010 a
b1010 h
b1010 m
b1010 o
1I
b10 i
0T
1_
1M
b1011010100000 <
b1011010100000 Z
b1011010100000 [
b10 $
b10 8
b10 ?
b10 V
0\
b1100010 ^
b1000100010 (
b1000100010 5
b1000100010 G
b1000100010 O
b1000100010 b
b100010 "
b100010 9
b100010 =
b100010 ]
b100010 f
b11101 *
b11101 >
b11101 R
b11101 e
b110001 B
b110001 Y
1#
1,
#450
0,
#455
0I
b0 i
1T
0_
0M
b1010 &
b1010 6
b1010 3
b1010 S
b1010 W
b1010 `
b1010 a
b1010 h
b1010 m
b1010 o
b1000000001000 <
b1000000001000 Z
b1000000001000 [
bx d
1\
b110000 B
b110000 Y
0#
b1001100011 (
b1001100011 5
b1001100011 G
b1001100011 O
b1001100011 b
b1100011 "
b1100011 9
b1100011 =
b1100011 ]
b1100011 f
b11110 *
b11110 >
b11110 R
b11110 e
b1010 )
b1010 4
b1010 H
b1010 K
b1010 g
1,
#460
0,
#465
b1 d
b1 D
b1 J
b1 U
b1 j
b1 k
b1 &
b1 6
b1 3
b1 S
b1 W
b1 `
b1 a
b1 h
b1 m
b1 o
1I
b10 i
0T
1_
1M
b1011010100000 <
b1011010100000 Z
b1011010100000 [
b11 $
b11 8
b11 ?
b11 V
0\
b1100011 ^
b1100110011 (
b1100110011 5
b1100110011 G
b1100110011 O
b1100110011 b
b110011 "
b110011 9
b110011 =
b110011 ]
b110011 f
b11111 *
b11111 >
b11111 R
b11111 e
b110001 B
b110001 Y
1#
1,
#470
0,
#475
0I
b0 i
1T
0_
0M
b1 &
b1 6
b1 3
b1 S
b1 W
b1 `
b1 a
b1 h
b1 m
b1 o
b1000000001000 <
b1000000001000 Z
b1000000001000 [
bx d
1\
b110000 B
b110000 Y
0#
b1101001010 (
b1101001010 5
b1101001010 G
b1101001010 O
b1101001010 b
b1001010 "
b1001010 9
b1001010 =
b1001010 ]
b1001010 f
b100000 *
b100000 >
b100000 R
b100000 e
b1 )
b1 4
b1 H
b1 K
b1 g
1,
#476
b111100000 2
#480
0,
#485
b1010 D
b1010 J
b1010 U
b1010 j
b1010 k
b1010 &
b1010 6
b1010 3
b1010 S
b1010 W
b1010 `
b1010 a
b1010 h
b1010 m
b1010 o
1X
0P
1I
b10 i
0T
1M
b11010000010 <
b11010000010 Z
b11010000010 [
b1010 $
b1010 8
b1010 ?
b1010 V
b100 %
b100 7
b100 @
0\
b1001010 ^
b101011110010 (
b101011110010 5
b101011110010 G
b101011110010 O
b101011110010 b
b11110010 "
b11110010 9
b11110010 =
b11110010 ]
b11110010 f
b100001 *
b100001 >
b100001 R
b100001 e
b100001 B
b100001 Y
1#
1,
#490
0,
#495
b1010 &
b1010 6
b1010 3
b1010 S
b1010 W
b1010 `
b1010 a
b1010 h
b1010 m
b1010 o
0I
b0 i
1T
0X
1P
0M
b1000000001000 <
b1000000001000 Z
b1000000001000 [
1\
b100000 B
b100000 Y
0#
b1010 )
b1010 4
b1010 H
b1010 K
b1010 g
1,
#500
0,
#505
b1010 d
b101 D
b101 J
b101 U
b101 j
b101 k
b1010 &
b1010 6
b1010 3
b1010 S
b1010 W
b1010 `
b1010 a
b1010 h
b1010 m
b1010 o
b100 i
1_
1I
0T
1M
b1011100100000 <
b1011100100000 Z
b1011100100000 [
b10 $
b10 8
b10 ?
b10 V
b1111 %
b1111 7
b1111 @
0\
b11110010 ^
b1000100010 (
b1000100010 5
b1000100010 G
b1000100010 O
b1000100010 b
b100010 "
b100010 9
b100010 =
b100010 ]
b100010 f
b100010 *
b100010 >
b100010 R
b100010 e
b1111001 B
b1111001 Y
1#
1,
#510
0,
#515
0I
b0 i
1T
0_
0M
b101 &
b101 6
b101 3
b101 S
b101 W
b101 `
b101 a
b101 h
b101 m
b101 o
b1000000001000 <
b1000000001000 Z
b1000000001000 [
bx d
b101 D
b101 J
b101 U
b101 j
1\
b101 k
b1111000 B
b1111000 Y
0#
b1001001111 (
b1001001111 5
b1001001111 G
b1001001111 O
b1001001111 b
b1001111 "
b1001111 9
b1001111 =
b1001111 ]
b1001111 f
b100011 *
b100011 >
b100011 R
b100011 e
b101 )
b101 4
b101 H
b101 K
b101 g
1,
#516
b1000001000 2
#520
0,
