Proyecto_Procesador_TbKurt/uP_tb.vcd
$date
	Wed Nov 18 10:26:52 2020
$end
$version
	Icarus Verilog
$end
$timescale
	1ps
$end
$scope module testbench $end
$var wire 1 ! z_flag $end
$var wire 8 " program_byte [7:0] $end
$var wire 1 # phase $end
$var wire 4 $ oprnd [3:0] $end
$var wire 4 % instr [3:0] $end
$var wire 4 & data_bus [3:0] $end
$var wire 1 ' c_flag $end
$var wire 12 ( address_RAM [11:0] $end
$var wire 4 ) accu [3:0] $end
$var wire 12 * PC [11:0] $end
$var wire 4 + FF_out [3:0] $end
$var reg 1 , clock $end
$var reg 4 - pushbuttons [3:0] $end
$var reg 1 . reset $end
$var integer 32 / nota [31:0] $end
$scope module uPmodule $end
$var wire 4 0 DATA_BUS [3:0] $end
$var wire 4 1 accu [3:0] $end
$var wire 12 2 address_RAM [11:0] $end
$var wire 1 ' c_flag $end
$var wire 1 , clock $end
$var wire 4 3 data_bus [3:0] $end
$var wire 4 4 instr [3:0] $end
$var wire 4 5 oprnd [3:0] $end
$var wire 8 6 program_byte [7:0] $end
$var wire 4 7 pushbuttons [3:0] $end
$var wire 1 . reset $end
$var wire 1 ! z_flag $end
$var wire 1 # phase $end
$var wire 1 8 Z_FLAG $end
$var wire 13 9 SC [12:0] $end
$var wire 8 : PROGRAM_BYTE [7:0] $end
$var wire 12 ; PC [11:0] $end
$var wire 4 < OPRND [3:0] $end
$var wire 4 = INSTR [3:0] $end
$var wire 4 > FF_out [3:0] $end
$var wire 7 ? DECODE_address [6:0] $end
$var wire 1 @ C_FLAG $end
$var wire 4 A ALU_OUT [3:0] $end
$var wire 1 B ALUZ $end
$var wire 1 C ALUC $end
$var wire 12 D ADDRESS_ram [11:0] $end
$var wire 4 E ACCUU [3:0] $end
$scope module FASE $end
$var wire 1 , clk $end
$var wire 1 . reset $end
$var reg 1 # Y $end
$upscope $end
$scope module acumulador $end
$var wire 1 , clk $end
$var wire 1 F enable $end
$var wire 1 . reset $end
$var wire 4 G D [3:0] $end
$var reg 4 H Y [3:0] $end
$upscope $end
$scope module banderas $end
$var wire 2 I D [1:0] $end
$var wire 1 , clk $end
$var wire 1 J enable $end
$var wire 1 . reset $end
$var reg 2 K Y [1:0] $end
$upscope $end
$scope module contador $end
$var wire 12 L Bload [11:0] $end
$var wire 1 M ENABLE $end
$var wire 1 N LOAD $end
$var wire 1 , clk $end
$var wire 1 . reset $end
$var reg 12 O Y [11:0] $end
$upscope $end
$scope module deALU $end
$var wire 4 P Y [3:0] $end
$var wire 1 Q enable $end
$var wire 4 R D [3:0] $end
$upscope $end
$scope module delfetch $end
$var wire 4 S D [3:0] $end
$var wire 4 T Y [3:0] $end
$var wire 1 U enable $end
$upscope $end
$scope module dicode $end
$var wire 7 V direccion [6:0] $end
$var wire 13 W senal [12:0] $end
$var reg 13 X datos [12:0] $end
$upscope $end
$scope module ftch $end
$var wire 1 , clk $end
$var wire 1 Y enable $end
$var wire 1 . reset $end
$var wire 8 Z D [7:0] $end
$var reg 8 [ Y [7:0] $end
$upscope $end
$scope module memram $end
$var wire 1 \ cs $end
$var wire 4 ] data [3:0] $end
$var wire 4 ^ datain [3:0] $end
$var wire 12 _ direccion [11:0] $end
$var wire 1 ` we $end
$var reg 4 a data_out [3:0] $end
$upscope $end
$scope module opcode $end
$var wire 12 b direccion [11:0] $end
$var wire 8 c salida [7:0] $end
$upscope $end
$scope module operaciones $end
$var wire 4 d A [3:0] $end
$var wire 4 e B [3:0] $end
$var wire 3 f selector [2:0] $end
$var wire 4 g Y [3:0] $end
$var reg 1 C C $end
$var reg 5 h RESalu [4:0] $end
$var reg 1 B ZERO $end
$upscope $end
$scope module pushes $end
$var wire 4 i D [3:0] $end
$var wire 4 j Y [3:0] $end
$var wire 1 k enable $end
$upscope $end
$scope module salida $end
$var wire 4 l D [3:0] $end
$var wire 1 , clk $end
$var wire 1 m enable $end
$var wire 1 . reset $end
$var reg 4 n Y [3:0] $end
$upscope $end
$upscope $end
$upscope $end
$enddefinitions $end
#0
$dumpvars
bx n
xm
bx l
xk
bx j
b110 i
bx h
bx g
bx f
bx e
bx d
bx c
bx b
bx a
x`
bx _
bx ^
bx ]
x\
bx [
bx Z
xY
bx X
bx W
bx V
xU
bx T
bx S
bx R
xQ
bx P
bx O
xN
xM
bx L
bx K
xJ
bx I
bx H
bx G
xF
bx E
bx D
xC
xB
bx A
x@
bx ?
bx >
bx =
bx <
bx ;
bx :
bx 9
x8
b110 7
bx 6
bx 5
bx 4
bx 3
bx 2
bx 1
bx 0
b0 /
0.
b110 -
0,
bx +
bx *
bx )
bx (
x'
bx &
bx %
bx $
x#
bx "
x!
$end
#2
b0 &
b0 3
b0 0
b0 P
b0 T
b0 ]
b0 ^
b0 e
b0 j
b0 l
0m
0F
b0 f
0k
1Q
0U
0`
0\
1M
0N
0J
b1000000001000 9
b1000000001000 W
b1000000001000 X
0C
b0 A
b0 G
b0 R
b0 g
1Y
0!
08
0'
0@
b0 $
b0 5
b0 <
b0 S
b0 %
b0 4
b0 =
b1 I
1B
b0 h
b0 ?
b0 V
0#
b0 K
b1000100 (
b1000100 2
b1000100 D
b1000100 L
b1000100 _
b1000100 "
b1000100 6
b1000100 :
b1000100 Z
b1000100 c
b0 *
b0 ;
b0 O
b0 b
b0 [
b0 )
b0 1
b0 E
b0 H
b0 d
b0 +
b0 >
b0 n
1.
#3
0.
#5
b100 A
b100 G
b100 R
b100 g
b0 I
0B
b100 h
b100 &
b100 3
b100 0
b100 P
b100 T
b100 ]
b100 ^
b100 e
b100 j
b100 l
1F
b10 f
0Q
1U
0M
1J
b11010000010 9
b11010000010 W
b11010000010 X
b100 $
b100 5
b100 <
b100 S
b100 %
b100 4
b100 =
0Y
b1000100 [
b10011011111 (
b10011011111 2
b10011011111 D
b10011011111 L
b10011011111 _
b11011111 "
b11011111 6
b11011111 :
b11011111 Z
b11011111 c
b1 *
b1 ;
b1 O
b1 b
b100001 ?
b100001 V
1#
1,
#10
0,
#15
b100 &
b100 3
b100 0
b100 P
b100 T
b100 ]
b100 ^
b100 e
b100 j
b100 l
0F
b0 f
1Q
0U
1M
0J
b1000000001000 9
b1000000001000 W
b1000000001000 X
1Y
b100000 ?
b100000 V
0#
b100 )
b100 1
b100 E
b100 H
b100 d
1,
#16
b1000110 /
#20
0,
#25
1m
0M
b1001 9
b1001 W
b1001 X
b1111 $
b1111 5
b1111 <
b1111 S
b1101 %
b1101 4
b1101 =
0Y
b11011111 [
b111101010001 (
b111101010001 2
b111101010001 D
b111101010001 L
b111101010001 _
b1010001 "
b1010001 6
b1010001 :
b1010001 Z
b1010001 c
b10 *
b10 ;
b10 O
b10 b
b1101001 ?
b1101001 V
1#
1,
#30
0,
#35
0m
1M
b1000000001000 9
b1000000001000 W
b1000000001000 X
1Y
b1101000 ?
b1101000 V
0#
b100 +
b100 >
b100 n
1,
#36
b10001000 /
#40
0,
#45
b110 A
b110 G
b110 R
b110 g
b110 h
b110 &
b110 3
b110 0
b110 P
b110 T
b110 ]
b110 ^
b110 e
b110 j
b110 l
1F
b10 f
1k
0Q
1J
0M
b11010000100 9
b11010000100 W
b11010000100 X
b1 $
b1 5
b1 <
b1 S
b101 %
b101 4
b101 =
0Y
b1010001 [
b101000000 (
b101000000 2
b101000000 D
b101000000 L
b101000000 _
b1000000 "
b1000000 6
b1000000 :
b1000000 Z
b1000000 c
b11 *
b11 ;
b11 O
b11 b
b101001 ?
b101001 V
1#
1,
#50
0,
#55
0F
b0 f
0k
1Q
1M
0J
b1000000001000 9
b1000000001000 W
b1000000001000 X
1Y
b101000 ?
b101000 V
0#
b110 )
b110 1
b110 E
b110 H
b110 d
1,
#56
b11001010 /
#60
0,
#65
b1 I
1B
b0 A
b0 G
b0 R
b0 g
b0 h
b0 &
b0 3
b0 0
b0 P
b0 T
b0 ]
b0 ^
b0 e
b0 j
b0 l
1U
1F
b10 f
0Q
0M
1J
b11010000010 9
b11010000010 W
b11010000010 X
b0 $
b0 5
b0 <
b0 S
b100 %
b100 4
b100 =
0Y
b1000000 [
b1001111 (
b1001111 2
b1001111 D
b1001111 L
b1001111 _
b1001111 "
b1001111 6
b1001111 :
b1001111 Z
b1001111 c
b100 *
b100 ;
b100 O
b100 b
b100001 ?
b100001 V
1#
1,
#70
0,
#75
b0 &
b0 3
b0 0
b0 P
b0 T
b0 ]
b0 ^
b0 e
b0 j
b0 l
0F
b0 f
1Q
0U
1M
0J
b1000000001000 9
b1000000001000 W
b1000000001000 X
1Y
1!
18
b100010 ?
b100010 V
0#
b1 K
b0 )
b0 1
b0 E
b0 H
b0 d
1,
#80
0,
#85
b1111 A
b1111 G
b1111 R
b1111 g
b0 I
0B
b1111 h
b1111 &
b1111 3
b1111 0
b1111 P
b1111 T
b1111 ]
b1111 ^
b1111 e
b1111 j
b1111 l
1F
b10 f
0Q
1U
0M
1J
b11010000010 9
b11010000010 W
b11010000010 X
b1111 $
b1111 5
b1111 <
b1111 S
0Y
b1001111 [
b111110101010 (
b111110101010 2
b111110101010 D
b111110101010 L
b111110101010 _
b10101010 "
b10101010 6
b10101010 :
b10101010 Z
b10101010 c
b101 *
b101 ;
b101 O
b101 b
b100011 ?
b100011 V
1#
1,
#90
0,
#95
b1111 &
b1111 3
b1111 0
b1111 P
b1111 T
b1111 ]
b1111 ^
b1111 e
b1111 j
b1111 l
0F
b0 f
1Q
0U
1M
0J
b1000000001000 9
b1000000001000 W
b1000000001000 X
1Y
0!
08
b100000 ?
b100000 V
0#
b0 K
b1111 )
b1111 1
b1111 E
b1111 H
b1111 d
1,
#100
0,
#105
b10 I
1C
b1001 A
b1001 G
b1001 R
b1001 g
b11001 h
b1010 &
b1010 3
b1010 0
b1010 P
b1010 T
b1010 ]
b1010 ^
b1010 e
b1010 j
b1010 l
1F
b11 f
0Q
1U
0M
1J
b11011000010 9
b11011000010 W
b11011000010 X
b1010 $
b1010 5
b1010 <
b1010 S
b1010 %
b1010 4
b1010 =
0Y
b10101010 [
b101000101000 (
b101000101000 2
b101000101000 D
b101000101000 L
b101000101000 _
b101000 "
b101000 6
b101000 :
b101000 Z
b101000 c
b110 *
b110 ;
b110 O
b110 b
b1010001 ?
b1010001 V
1#
1,
#110
0,
#115
b0 I
0C
b1001 &
b1001 3
b1001 0
b1001 P
b1001 T
b1001 ]
b1001 ^
b1001 e
b1001 j
b1001 l
0F
b0 f
1Q
0U
1M
0J
b1000000001000 9
b1000000001000 W
b1000000001000 X
b1001 A
b1001 G
b1001 R
b1001 g
1Y
1'
1@
b1001 h
b1010100 ?
b1010100 V
0#
b10 K
b1001 )
b1001 1
b1001 E
b1001 H
b1001 d
1,
#116
b11101011 /
#120
0,
#125
b1 A
b1 G
b1 R
b1 g
b1 h
b1000 &
b1000 3
b1000 0
b1000 P
b1000 T
b1000 ]
b1000 ^
b1000 e
b1000 j
b1000 l
b1 f
0Q
1U
0M
1J
b1001000010 9
b1001000010 W
b1001000010 X
b1000 $
b1000 5
b1000 <
b1000 S
b10 %
b10 4
b10 =
0Y
b101000 [
b100001001010 (
b100001001010 2
b100001001010 D
b100001001010 L
b100001001010 _
b1001010 "
b1001010 6
b1001010 :
b1001010 Z
b1001010 c
b111 *
b111 ;
b111 O
b111 b
b10101 ?
b10101 V
1#
1,
#130
0,
#135
b1001 A
b1001 G
b1001 R
b1001 g
b1001 h
b1001 &
b1001 3
b1001 0
b1001 P
b1001 T
b1001 ]
b1001 ^
b1001 e
b1001 j
b1001 l
b0 f
1Q
0U
1M
0J
b1000000001000 9
b1000000001000 W
b1000000001000 X
1Y
0'
0@
b10000 ?
b10000 V
0#
b0 K
1,
#136
b100001100 /
#140
0,
#145
b1010 A
b1010 G
b1010 R
b1010 g
b1010 h
b1010 &
b1010 3
b1010 0
b1010 P
b1010 T
b1010 ]
b1010 ^
b1010 e
b1010 j
b1010 l
1F
b10 f
0Q
1U
0M
1J
b11010000010 9
b11010000010 W
b11010000010 X
b1010 $
b1010 5
b1010 <
b1010 S
b100 %
b100 4
b100 =
0Y
b1001010 [
b101000101100 (
b101000101100 2
b101000101100 D
b101000101100 L
b101000101100 _
b101100 "
b101100 6
b101100 :
b101100 Z
b101100 c
b1000 *
b1000 ;
b1000 O
b1000 b
b100001 ?
b100001 V
1#
1,
#150
0,
#155
b1010 &
b1010 3
b1010 0
b1010 P
b1010 T
b1010 ]
b1010 ^
b1010 e
b1010 j
b1010 l
0F
b0 f
1Q
0U
1M
0J
b1000000001000 9
b1000000001000 W
b1000000001000 X
1Y
b100000 ?
b100000 V
0#
b1010 )
b1010 1
b1010 E
b1010 H
b1010 d
1,
#160
0,
#165
b10 I
1C
b1110 A
b1110 G
b1110 R
b1110 g
b11110 h
b1100 &
b1100 3
b1100 0
b1100 P
b1100 T
b1100 ]
b1100 ^
b1100 e
b1100 j
b1100 l
b1 f
0Q
1U
0M
1J
b1001000010 9
b1001000010 W
b1001000010 X
b1100 $
b1100 5
b1100 <
b1100 S
b10 %
b10 4
b10 =
0Y
b101100 [
b110010100001 (
b110010100001 2
b110010100001 D
b110010100001 L
b110010100001 _
b10100001 "
b10100001 6
b10100001 :
b10100001 Z
b10100001 c
b1001 *
b1001 ;
b1001 O
b1001 b
b10001 ?
b10001 V
1#
1,
#170
0,
#175
b0 I
0C
b1010 A
b1010 G
b1010 R
b1010 g
b1010 h
b1010 &
b1010 3
b1010 0
b1010 P
b1010 T
b1010 ]
b1010 ^
b1010 e
b1010 j
b1010 l
b0 f
1Q
0U
1M
0J
b1000000001000 9
b1000000001000 W
b1000000001000 X
1Y
1'
1@
b10100 ?
b10100 V
0#
b10 K
1,
#176
b100101101 /
#180
0,
#185
b1011 A
b1011 G
b1011 R
b1011 g
b1011 h
b1 &
b1 3
b1 0
b1 P
b1 T
b1 ]
b1 ^
b1 e
b1 j
b1 l
1F
b11 f
0Q
1U
0M
1J
b11011000010 9
b11011000010 W
b11011000010 X
b1 $
b1 5
b1 <
b1 S
b1010 %
b1010 4
b1010 =
0Y
b10100001 [
b111101011 (
b111101011 2
b111101011 D
b111101011 L
b111101011 _
b11101011 "
b11101011 6
b11101011 :
b11101011 Z
b11101011 c
b1010 *
b1010 ;
b1010 O
b1010 b
b1010101 ?
b1010101 V
1#
1,
#190
0,
#195
b1011 &
b1011 3
b1011 0
b1011 P
b1011 T
b1011 ]
b1011 ^
b1011 e
b1011 j
b1011 l
0F
b0 f
1Q
0U
1M
0J
b1000000001000 9
b1000000001000 W
b1000000001000 X
b1011 A
b1011 G
b1011 R
b1011 g
1Y
0'
0@
b1011 h
b1010000 ?
b1010000 V
0#
b0 K
b1011 )
b1011 1
b1011 E
b1011 H
b1011 d
1,
#196
b101001110 /
#200
0,
#205
b100 A
b100 G
b100 R
b100 g
b100 h
b100 f
1F
0Q
1U
0M
1J
b11100000010 9
b11100000010 W
b11100000010 X
b1011 $
b1011 5
b1011 <
b1011 S
b1110 %
b1110 4
b1110 =
0Y
b11101011 [
b101111010000 (
b101111010000 2
b101111010000 D
b101111010000 L
b101111010000 _
b11010000 "
b11010000 6
b11010000 :
b11010000 Z
b11010000 c
b1011 *
b1011 ;
b1011 O
b1011 b
b1110001 ?
b1110001 V
1#
1,
#210
0,
#215
b100 &
b100 3
b100 0
b100 P
b100 T
b100 ]
b100 ^
b100 e
b100 j
b100 l
0F
b0 f
1Q
0U
1M
0J
b1000000001000 9
b1000000001000 W
b1000000001000 X
b100 A
b100 G
b100 R
b100 g
1Y
b100 h
b1110000 ?
b1110000 V
0#
b100 )
b100 1
b100 E
b100 H
b100 d
1,
#216
b110010000 /
#220
0,
#225
1m
0M
b1001 9
b1001 W
b1001 X
b0 $
b0 5
b0 <
b0 S
b1101 %
b1101 4
b1101 =
0Y
b11010000 [
b1010000 (
b1010000 2
b1010000 D
b1010000 L
b1010000 _
b1010000 "
b1010000 6
b1010000 :
b1010000 Z
b1010000 c
b1100 *
b1100 ;
b1100 O
b1100 b
b1101001 ?
b1101001 V
1#
1,
#230
0,
#235
0m
1M
b1000000001000 9
b1000000001000 W
b1000000001000 X
1Y
b1101000 ?
b1101000 V
0#
1,
#240
0,
#245
b110 A
b110 G
b110 R
b110 g
b110 h
b110 &
b110 3
b110 0
b110 P
b110 T
b110 ]
b110 ^
b110 e
b110 j
b110 l
1F
b10 f
1k
0Q
1J
0M
b11010000100 9
b11010000100 W
b11010000100 X
b101 %
b101 4
b101 =
0Y
b1010000 [
b11001010 (
b11001010 2
b11001010 D
b11001010 L
b11001010 _
b11001010 "
b11001010 6
b11001010 :
b11001010 Z
b11001010 c
b1101 *
b1101 ;
b1101 O
b1101 b
b101001 ?
b101001 V
1#
1,
#250
0,
#255
0F
b0 f
0k
1Q
1M
0J
b1000000001000 9
b1000000001000 W
b1000000001000 X
1Y
b101000 ?
b101000 V
0#
b110 )
b110 1
b110 E
b110 H
b110 d
1,
#260
0,
#265
1N
0M
b100000001000 9
b100000001000 W
b100000001000 X
b1010 $
b1010 5
b1010 <
b1010 S
b1100 %
b1100 4
b1100 =
0Y
b11001010 [
b101000000001 (
b101000000001 2
b101000000001 D
b101000000001 L
b101000000001 _
b1 "
b1 6
b1 :
b1 Z
b1 c
b1110 *
b1110 ;
b1110 O
b1110 b
b1100001 ?
b1100001 V
1#
1,
#270
0,
#275
1M
0N
b1000000001000 9
b1000000001000 W
b1000000001000 X
1Y
b1100000 ?
b1100000 V
0#
b101001000001 (
b101001000001 2
b101001000001 D
b101001000001 L
b101001000001 _
b1000001 "
b1000001 6
b1000001 :
b1000001 Z
b1000001 c
b101000000001 *
b101000000001 ;
b101000000001 O
b101000000001 b
1,
#276
b111001100 /
#280
0,
#285
b1 A
b1 G
b1 R
b1 g
b1 h
b1 &
b1 3
b1 0
b1 P
b1 T
b1 ]
b1 ^
b1 e
b1 j
b1 l
1F
b10 f
0Q
1U
1J
0M
b11010000010 9
b11010000010 W
b11010000010 X
b1 $
b1 5
b1 <
b1 S
b100 %
b100 4
b100 =
0Y
b1000001 [
b100100010 (
b100100010 2
b100100010 D
b100100010 L
b100100010 _
b100010 "
b100010 6
b100010 :
b100010 Z
b100010 c
b101000000010 *
b101000000010 ;
b101000000010 O
b101000000010 b
b100001 ?
b100001 V
1#
1,
#290
0,
#295
b1 &
b1 3
b1 0
b1 P
b1 T
b1 ]
b1 ^
b1 e
b1 j
b1 l
0F
b0 f
1Q
0U
1M
0J
b1000000001000 9
b1000000001000 W
b1000000001000 X
1Y
b100000 ?
b100000 V
0#
b1 )
b1 1
b1 E
b1 H
b1 d
1,
#300
0,
#305
b10 I
1C
b1111 A
b1111 G
b1111 R
b1111 g
b11111 h
b10 &
b10 3
b10 0
b10 P
b10 T
b10 ]
b10 ^
b10 e
b10 j
b10 l
b1 f
0Q
1U
0M
1J
b1001000010 9
b1001000010 W
b1001000010 X
b10 $
b10 5
b10 <
b10 S
b10 %
b10 4
b10 =
0Y
b100010 [
b1000000000 (
b1000000000 2
b1000000000 D
b1000000000 L
b1000000000 _
b0 "
b0 6
b0 :
b0 Z
b0 c
b101000000011 *
b101000000011 ;
b101000000011 O
b101000000011 b
b10001 ?
b10001 V
1#
1,
#310
0,
#315
b0 I
0C
b1 A
b1 G
b1 R
b1 g
b1 h
b1 &
b1 3
b1 0
b1 P
b1 T
b1 ]
b1 ^
b1 e
b1 j
b1 l
b0 f
1Q
0U
1M
0J
b1000000001000 9
b1000000001000 W
b1000000001000 X
1Y
1'
1@
b10100 ?
b10100 V
0#
b10 K
1,
#320
0,
#325
1N
0M
b100000001000 9
b100000001000 W
b100000001000 X
b0 $
b0 5
b0 <
b0 S
b0 %
b0 4
b0 =
0Y
b0 [
b1010000 (
b1010000 2
b1010000 D
b1010000 L
b1010000 _
b1010000 "
b1010000 6
b1010000 :
b1010000 Z
b1010000 c
b101000000100 *
b101000000100 ;
b101000000100 O
b101000000100 b
b101 ?
b101 V
1#
1,
#330
0,
#335
1M
0N
b1000000001000 9
b1000000001000 W
b1000000001000 X
1Y
b100 ?
b100 V
0#
b1001111 (
b1001111 2
b1001111 D
b1001111 L
b1001111 _
b1001111 "
b1001111 6
b1001111 :
b1001111 Z
b1001111 c
b1010000 *
b1010000 ;
b1010000 O
b1010000 b
1,
#340
0,
#345
b1111 A
b1111 G
b1111 R
b1111 g
b1111 h
b1111 &
b1111 3
b1111 0
b1111 P
b1111 T
b1111 ]
b1111 ^
b1111 e
b1111 j
b1111 l
1F
b10 f
0Q
1U
1J
0M
b11010000010 9
b11010000010 W
b11010000010 X
b1111 $
b1111 5
b1111 <
b1111 S
b100 %
b100 4
b100 =
0Y
b1001111 [
b111110100001 (
b111110100001 2
b111110100001 D
b111110100001 L
b111110100001 _
b10100001 "
b10100001 6
b10100001 :
b10100001 Z
b10100001 c
b1010001 *
b1010001 ;
b1010001 O
b1010001 b
b100101 ?
b100101 V
1#
1,
#350
0,
#355
b1111 &
b1111 3
b1111 0
b1111 P
b1111 T
b1111 ]
b1111 ^
b1111 e
b1111 j
b1111 l
0F
b0 f
1Q
0U
1M
0J
b1000000001000 9
b1000000001000 W
b1000000001000 X
1Y
0'
0@
b100000 ?
b100000 V
0#
b0 K
b1111 )
b1111 1
b1111 E
b1111 H
b1111 d
1,
#360
0,
#365
1C
b0 A
b0 G
b0 R
b0 g
b11 I
1B
b10000 h
b1 &
b1 3
b1 0
b1 P
b1 T
b1 ]
b1 ^
b1 e
b1 j
b1 l
1F
b11 f
0Q
1U
0M
1J
b11011000010 9
b11011000010 W
b11011000010 X
b1 $
b1 5
b1 <
b1 S
b1010 %
b1010 4
b1010 =
0Y
b10100001 [
b110001111 (
b110001111 2
b110001111 D
b110001111 L
b110001111 _
b10001111 "
b10001111 6
b10001111 :
b10001111 Z
b10001111 c
b1010010 *
b1010010 ;
b1010010 O
b1010010 b
b1010001 ?
b1010001 V
1#
1,
#370
0,
#375
b0 &
b0 3
b0 0
b0 P
b0 T
b0 ]
b0 ^
b0 e
b0 j
b0 l
0F
b0 f
1Q
0U
1M
0J
b1000000001000 9
b1000000001000 W
b1000000001000 X
0C
b0 A
b0 G
b0 R
b0 g
1Y
1!
18
1'
1@
b1 I
1B
b0 h
b1010110 ?
b1010110 V
0#
b11 K
b0 )
b0 1
b0 E
b0 H
b0 d
1,
#380
0,
#385
1N
0M
b100000001000 9
b100000001000 W
b100000001000 X
b1111 $
b1111 5
b1111 <
b1111 S
b1000 %
b1000 4
b1000 =
0Y
b10001111 [
b111101001001 (
b111101001001 2
b111101001001 D
b111101001001 L
b111101001001 _
b1001001 "
b1001001 6
b1001001 :
b1001001 Z
b1001001 c
b1010011 *
b1010011 ;
b1010011 O
b1010011 b
b1000111 ?
b1000111 V
1#
1,
#390
0,
#395
1M
0N
b1000000001000 9
b1000000001000 W
b1000000001000 X
1Y
b1000110 ?
b1000110 V
0#
b111101000110 (
b111101000110 2
b111101000110 D
b111101000110 L
b111101000110 _
b1000110 "
b1000110 6
b1000110 :
b1000110 Z
b1000110 c
b111101001001 *
b111101001001 ;
b111101001001 O
b111101001001 b
1,
#400
0,
#405
b110 A
b110 G
b110 R
b110 g
b0 I
0B
b110 h
b110 &
b110 3
b110 0
b110 P
b110 T
b110 ]
b110 ^
b110 e
b110 j
b110 l
1F
b10 f
0Q
1U
1J
0M
b11010000010 9
b11010000010 W
b11010000010 X
b110 $
b110 5
b110 <
b110 S
b100 %
b100 4
b100 =
0Y
b1000110 [
b11000100010 (
b11000100010 2
b11000100010 D
b11000100010 L
b11000100010 _
b100010 "
b100010 6
b100010 :
b100010 Z
b100010 c
b111101001010 *
b111101001010 ;
b111101001010 O
b111101001010 b
b100111 ?
b100111 V
1#
1,
#410
0,
#415
b110 &
b110 3
b110 0
b110 P
b110 T
b110 ]
b110 ^
b110 e
b110 j
b110 l
0F
b0 f
1Q
0U
1M
0J
b1000000001000 9
b1000000001000 W
b1000000001000 X
1Y
0!
08
0'
0@
b100000 ?
b100000 V
0#
b0 K
b110 )
b110 1
b110 E
b110 H
b110 d
1,
#420
0,
#425
b100 A
b100 G
b100 R
b100 g
b100 h
b10 &
b10 3
b10 0
b10 P
b10 T
b10 ]
b10 ^
b10 e
b10 j
b10 l
b1 f
0Q
1U
0M
1J
b1001000010 9
b1001000010 W
b1001000010 X
b10 $
b10 5
b10 <
b10 S
b10 %
b10 4
b10 =
0Y
b100010 [
b1000000001 (
b1000000001 2
b1000000001 D
b1000000001 L
b1000000001 _
b1 "
b1 6
b1 :
b1 Z
b1 c
b111101001011 *
b111101001011 ;
b111101001011 O
b111101001011 b
b10001 ?
b10001 V
1#
1,
#430
0,
#435
b110 A
b110 G
b110 R
b110 g
b110 h
b110 &
b110 3
b110 0
b110 P
b110 T
b110 ]
b110 ^
b110 e
b110 j
b110 l
b0 f
1Q
0U
1M
0J
b1000000001000 9
b1000000001000 W
b1000000001000 X
1Y
b10000 ?
b10000 V
0#
1,
#440
0,
#445
b1000000001000 9
b1000000001000 W
b1000000001000 X
b1 $
b1 5
b1 <
b1 S
b0 %
b0 4
b0 =
0Y
b1 [
b100100011 (
b100100011 2
b100100011 D
b100100011 L
b100100011 _
b100011 "
b100011 6
b100011 :
b100011 Z
b100011 c
b111101001100 *
b111101001100 ;
b111101001100 O
b111101001100 b
b1 ?
b1 V
1#
1,
#450
0,
#455
1Y
b0 ?
b0 V
0#
b100010010 (
b100010010 2
b100010010 D
b100010010 L
b100010010 _
b10010 "
b10010 6
b10010 :
b10010 Z
b10010 c
b111101001101 *
b111101001101 ;
b111101001101 O
b111101001101 b
1,
#460
0,
#465
0M
1N
b100000001000 9
b100000001000 W
b100000001000 X
b10 $
b10 5
b10 <
b10 S
b1 %
b1 4
b1 =
0Y
b10010 [
b1000100011 (
b1000100011 2
b1000100011 D
b1000100011 L
b1000100011 _
b100011 "
b100011 6
b100011 :
b100011 Z
b100011 c
b111101001110 *
b111101001110 ;
b111101001110 O
b111101001110 b
b1001 ?
b1001 V
1#
1,
#470
0,
#475
1M
0N
b1000000001000 9
b1000000001000 W
b1000000001000 X
1Y
b1000 ?
b1000 V
0#
b1001001010 (
b1001001010 2
b1001001010 D
b1001001010 L
b1001001010 _
b1001010 "
b1001010 6
b1001010 :
b1001010 Z
b1001010 c
b1000100011 *
b1000100011 ;
b1000100011 O
b1000100011 b
1,
#480
0,
#485
b1010 A
b1010 G
b1010 R
b1010 g
b1010 h
b1010 &
b1010 3
b1010 0
b1010 P
b1010 T
b1010 ]
b1010 ^
b1010 e
b1010 j
b1010 l
1F
b10 f
0Q
1U
1J
0M
b11010000010 9
b11010000010 W
b11010000010 X
b1010 $
b1010 5
b1010 <
b1010 S
b100 %
b100 4
b100 =
0Y
b1001010 [
b1010xxxxxxxx (
b1010xxxxxxxx 2
b1010xxxxxxxx D
b1010xxxxxxxx L
b1010xxxxxxxx _
bx "
bx 6
bx :
bx Z
bx c
b1000100100 *
b1000100100 ;
b1000100100 O
b1000100100 b
b100001 ?
b100001 V
1#
1,
#490
0,
#495
b1010 &
b1010 3
b1010 0
b1010 P
b1010 T
b1010 ]
b1010 ^
b1010 e
b1010 j
b1010 l
0F
b0 f
1Q
0U
1M
0J
b1000000001000 9
b1000000001000 W
b1000000001000 X
1Y
b100000 ?
b100000 V
0#
b1010 )
b1010 1
b1010 E
b1010 H
b1010 d
1,
