Laboratorio#4/AlarmaCasera/AlarmaCasera_GateLevel/Alarma_Casera_POS/AlamCas_POS_tb.vcd
$date
	Thu Aug 06 20:23:56 2020
$end
$version
	Icarus Verilog
$end
$timescale
	1ps
$end
$scope module AlamCas_POS $end
$var wire 1 ! NA $end
$var wire 1 " NB $end
$var wire 1 # NC $end
$var wire 1 $ lin1 $end
$var wire 1 % lin2 $end
$var wire 1 & lin3 $end
$var wire 1 ' lin4 $end
$var wire 1 ( lin5 $end
$var wire 1 ) out $end
$var reg 1 * A $end
$var reg 1 + B $end
$var reg 1 , C $end
$upscope $end
$enddefinitions $end
#0
$dumpvars
0,
0+
0*
0)
1(
1'
1&
1%
0$
1#
1"
1!
$end
#1
0%
1$
0#
1,
#2
0&
1#
1%
0"
0,
1+
#3
0'
1&
0#
1,
#4
1)
1#
1"
1'
0!
0,
0+
1*
#5
0#
1,
#6
0)
0(
1#
0"
0,
1+
#7
1)
1(
0#
1,
