Laboratorio#4/Ejercicio04/Modulos01-02_tb.vcd
$date
	Fri Aug 07 15:56:22 2020
$end
$version
	Icarus Verilog
$end
$timescale
	1ps
$end
$scope module bancodepruebas $end
$var wire 1 ! sal24 $end
$var wire 1 " sal23 $end
$var wire 1 # sal22 $end
$var wire 1 $ sal21 $end
$var wire 1 % sal04 $end
$var wire 1 & sal03 $end
$var wire 1 ' sal02 $end
$var wire 1 ( sal01 $end
$var reg 1 ) A $end
$var reg 1 * A2 $end
$var reg 1 + B $end
$var reg 1 , B2 $end
$var reg 1 - C $end
$var reg 1 . C2 $end
$var reg 1 / D $end
$var reg 1 0 D2 $end
$var reg 1 1 a $end
$var reg 1 2 b $end
$var reg 1 3 c $end
$scope module form1 $end
$var wire 1 * A $end
$var wire 1 , B $end
$var wire 1 . C $end
$var wire 1 0 D $end
$var wire 1 4 NA $end
$var wire 1 5 NB $end
$var wire 1 6 NC $end
$var wire 1 7 ND $end
$var wire 1 8 W1 $end
$var wire 1 9 W2 $end
$var wire 1 : W3 $end
$var wire 1 ; W4 $end
$var wire 1 $ Y $end
$upscope $end
$scope module form2 $end
$var wire 1 * A $end
$var wire 1 , B $end
$var wire 1 . C $end
$var wire 1 < NB $end
$var wire 1 # Y $end
$upscope $end
$scope module form3 $end
$var wire 1 * A $end
$var wire 1 , B $end
$var wire 1 . C $end
$var wire 1 0 D $end
$var wire 1 = NC $end
$var wire 1 > W1 $end
$var wire 1 ? W2 $end
$var wire 1 " Y $end
$upscope $end
$scope module form4 $end
$var wire 1 * A $end
$var wire 1 , B $end
$var wire 1 . C $end
$var wire 1 @ NA $end
$var wire 1 A NC $end
$var wire 1 B W1 $end
$var wire 1 ! Y $end
$upscope $end
$scope module tab1 $end
$var wire 1 1 A $end
$var wire 1 2 B $end
$var wire 1 3 C $end
$var wire 1 ( Y $end
$upscope $end
$scope module tab2 $end
$var wire 1 1 A $end
$var wire 1 2 B $end
$var wire 1 3 C $end
$var wire 1 ' Y $end
$upscope $end
$scope module tab3 $end
$var wire 1 ) A $end
$var wire 1 + B $end
$var wire 1 - C $end
$var wire 1 / D $end
$var wire 1 & Y $end
$upscope $end
$scope module tab4 $end
$var wire 1 ) A $end
$var wire 1 + B $end
$var wire 1 - C $end
$var wire 1 / D $end
$var wire 1 % Y $end
$upscope $end
$upscope $end
$enddefinitions $end
#0
$dumpvars
xB
xA
x@
x?
x>
x=
x<
x;
x:
x9
x8
x7
x6
x5
x4
03
02
01
x0
x/
x.
x-
x,
x+
x*
x)
1(
1'
x&
x%
x$
x#
x"
x!
$end
#1
0(
13
#2
1(
0'
03
12
#3
0(
13
#4
1(
1'
03
02
11
#5
13
#6
0(
0'
03
12
#7
1(
13
#10
1(
1'
03
02
01
#11
0(
13
#12
1(
0'
03
12
#13
0(
13
#14
1(
1'
03
02
11
#15
13
#16
0(
0'
03
12
#17
1(
13
#20
1&
1%
0/
0-
0+
0)
#21
0&
0%
1/
#22
1%
0/
1-
#23
1&
0%
1/
#24
0&
0/
0-
1+
#25
1&
1%
1/
#26
0%
0/
1-
#27
0&
1%
1/
#28
0/
0-
0+
1)
#29
0%
1&
1/
#30
1%
0/
1-
#31
0&
1/
#32
1&
1%
0/
0-
1+
#33
0&
1/
#34
0/
1-
#35
1&
1/
#40
1&
0/
0-
0+
0)
#41
0&
0%
1/
#42
1%
0/
1-
#43
1&
0%
1/
#44
0&
0/
0-
1+
#45
1&
1%
1/
#46
0%
0/
1-
#47
0&
1%
1/
#48
0/
0-
0+
1)
#49
0%
1&
1/
#50
1%
0/
1-
#51
0&
1/
#52
1&
1%
0/
0-
1+
#53
0&
1/
#54
0/
1-
#55
1&
1/
#60
1$
1!
0"
18
1B
17
0>
16
1#
1=
1A
15
1<
14
09
0:
0;
0?
1@
00
0.
0,
0*
#61
0$
08
1"
07
1>
10
#62
0!
0"
0B
17
0>
06
0=
0A
00
1.
#63
07
10
#64
1B
17
16
0#
1=
1A
05
0<
1"
1!
00
0.
1,
#65
07
1>
10
#66
0B
17
0>
06
1#
0=
0A
00
1.
#67
07
10
#68
1$
19
1:
18
1;
17
16
1=
1A
15
1<
0"
0!
04
0@
00
0.
0,
1*
#69
08
09
1"
07
1>
1?
10
#70
19
0"
0:
17
0>
0?
06
0=
0A
00
1.
#71
09
1"
07
1?
10
#72
19
1:
0;
17
0?
16
0#
1=
1A
05
0<
1!
00
0.
1,
#73
09
07
1>
1?
10
#74
19
0:
17
0>
0?
06
1#
0=
0A
00
1.
#75
0$
09
07
1?
10
#80
1>
1B
16
1=
1A
15
1<
1"
1!
14
0?
1@
0.
0,
0*
#81
0"
0!
0>
0B
06
0=
0A
1.
#82
1>
1B
16
0#
1=
1A
05
0<
1"
1!
0.
1,
#83
0>
0B
06
1#
0=
0A
1.
#84
1$
1:
1>
1;
16
1=
1A
15
1<
0!
04
1?
0@
0.
0,
1*
#85
0:
0>
06
0=
0A
1.
#86
1:
1>
0;
16
0#
1=
1A
05
0<
1!
0.
1,
#87
0$
0:
0>
06
1#
0=
0A
1.
#90
1$
18
1B
17
16
1=
1A
15
1<
0"
1!
14
0?
1@
00
0.
0,
0*
#91
0$
08
1"
07
1>
10
#92
0!
0"
0B
17
0>
06
0=
0A
00
1.
#93
07
10
#94
1B
17
16
0#
1=
1A
05
0<
1"
1!
00
0.
1,
#95
07
1>
10
#96
0B
17
0>
06
1#
0=
0A
00
1.
#97
07
10
#98
1$
19
1:
18
1;
17
16
1=
1A
15
1<
0"
0!
04
0@
00
0.
0,
1*
#99
08
09
1"
07
1>
1?
10
#100
19
0"
0:
17
0>
0?
06
0=
0A
00
1.
#101
09
1"
07
1?
10
#102
19
1:
0;
17
0?
16
0#
1=
1A
05
0<
1!
00
0.
1,
#103
09
07
1>
1?
10
#104
19
0:
17
0>
0?
06
1#
0=
0A
00
1.
#105
0$
09
07
1?
10
#110
1>
1B
16
1=
1A
15
1<
1"
1!
14
0?
1@
0.
0,
0*
#111
0"
0!
0>
0B
06
0=
0A
1.
#112
1>
1B
16
0#
1=
1A
05
0<
1"
1!
0.
1,
#113
0>
0B
06
1#
0=
0A
1.
#114
1$
1:
1>
1;
16
1=
1A
15
1<
0!
04
1?
0@
0.
0,
1*
#115
0:
0>
06
0=
0A
1.
#116
1:
1>
0;
16
0#
1=
1A
05
0<
1!
0.
1,
#117
0$
0:
0>
06
1#
0=
0A
1.
