Laboratorio#5/Muxes_tb.vcd
$date
	Thu Aug 13 17:04:49 2020
$end
$version
	Icarus Verilog
$end
$timescale
	1ps
$end
$scope module testbench $end
$var wire 1 ! Y81 $end
$var wire 1 " Y41 $end
$var wire 1 # Y3 $end
$var wire 1 $ Y21 $end
$var wire 1 % Y2 $end
$var wire 1 & Y1 $end
$var reg 1 ' A1 $end
$var reg 1 ( A2 $end
$var reg 1 ) B1 $end
$var reg 1 * B2 $end
$var reg 1 + C1 $end
$var reg 1 , C2 $end
$scope module sel21 $end
$var wire 1 ' A $end
$var wire 1 ) B $end
$var wire 1 + C $end
$var wire 1 - y1 $end
$var wire 1 . y2 $end
$var wire 1 & Y $end
$scope module select0 $end
$var wire 1 - D0 $end
$var wire 1 . D1 $end
$var wire 1 ' S $end
$var wire 1 & Y $end
$upscope $end
$upscope $end
$scope module sel22 $end
$var wire 1 ( A $end
$var wire 1 * B $end
$var wire 1 , C $end
$var wire 1 / y1 $end
$var wire 1 0 y2 $end
$var wire 1 $ Y $end
$scope module select2t2 $end
$var wire 1 / D0 $end
$var wire 1 0 D1 $end
$var wire 1 ( S $end
$var wire 1 $ Y $end
$upscope $end
$upscope $end
$scope module sel41 $end
$var wire 1 ' A $end
$var wire 1 ) B $end
$var wire 1 + C $end
$var wire 1 % Y $end
$scope module selec4t1 $end
$var wire 1 + D0 $end
$var wire 1 1 D1 $end
$var wire 1 2 D2 $end
$var wire 1 + D3 $end
$var wire 1 ) S0 $end
$var wire 1 ' S1 $end
$var wire 1 3 lin1 $end
$var wire 1 4 lin0 $end
$var wire 1 % Y $end
$scope module selec0 $end
$var wire 1 + D0 $end
$var wire 1 1 D1 $end
$var wire 1 ) S $end
$var wire 1 4 Y $end
$upscope $end
$scope module selec1 $end
$var wire 1 2 D0 $end
$var wire 1 + D1 $end
$var wire 1 ) S $end
$var wire 1 3 Y $end
$upscope $end
$scope module selec2 $end
$var wire 1 4 D0 $end
$var wire 1 3 D1 $end
$var wire 1 ' S $end
$var wire 1 % Y $end
$upscope $end
$upscope $end
$upscope $end
$scope module sel42 $end
$var wire 1 ( A $end
$var wire 1 * B $end
$var wire 1 , C $end
$var wire 1 5 GG $end
$var wire 1 " Y $end
$scope module select4t2 $end
$var wire 1 6 D0 $end
$var wire 1 5 D1 $end
$var wire 1 , D2 $end
$var wire 1 7 D3 $end
$var wire 1 * S0 $end
$var wire 1 ( S1 $end
$var wire 1 8 lin1 $end
$var wire 1 9 lin0 $end
$var wire 1 " Y $end
$scope module selec0 $end
$var wire 1 6 D0 $end
$var wire 1 5 D1 $end
$var wire 1 * S $end
$var wire 1 9 Y $end
$upscope $end
$scope module selec1 $end
$var wire 1 , D0 $end
$var wire 1 7 D1 $end
$var wire 1 * S $end
$var wire 1 8 Y $end
$upscope $end
$scope module selec2 $end
$var wire 1 9 D0 $end
$var wire 1 8 D1 $end
$var wire 1 ( S $end
$var wire 1 " Y $end
$upscope $end
$upscope $end
$upscope $end
$scope module sel81 $end
$var wire 1 ' A $end
$var wire 1 ) B $end
$var wire 1 + C $end
$var wire 1 : DG $end
$var wire 1 ; DV $end
$var wire 1 # Y $end
$scope module select8t1 $end
$var wire 1 : D0 $end
$var wire 1 ; D1 $end
$var wire 1 ; D2 $end
$var wire 1 : D3 $end
$var wire 1 ; D4 $end
$var wire 1 : D5 $end
$var wire 1 : D6 $end
$var wire 1 ; D7 $end
$var wire 1 + S0 $end
$var wire 1 ) S1 $end
$var wire 1 ' S2 $end
$var wire 1 < lin1 $end
$var wire 1 = lin0 $end
$var wire 1 # Y $end
$scope module selec0 $end
$var wire 1 : D0 $end
$var wire 1 ; D1 $end
$var wire 1 ; D2 $end
$var wire 1 : D3 $end
$var wire 1 + S0 $end
$var wire 1 ) S1 $end
$var wire 1 > lin1 $end
$var wire 1 ? lin0 $end
$var wire 1 = Y $end
$scope module selec0 $end
$var wire 1 : D0 $end
$var wire 1 ; D1 $end
$var wire 1 + S $end
$var wire 1 ? Y $end
$upscope $end
$scope module selec1 $end
$var wire 1 ; D0 $end
$var wire 1 : D1 $end
$var wire 1 + S $end
$var wire 1 > Y $end
$upscope $end
$scope module selec2 $end
$var wire 1 ? D0 $end
$var wire 1 > D1 $end
$var wire 1 ) S $end
$var wire 1 = Y $end
$upscope $end
$upscope $end
$scope module selec1 $end
$var wire 1 ; D0 $end
$var wire 1 : D1 $end
$var wire 1 : D2 $end
$var wire 1 ; D3 $end
$var wire 1 + S0 $end
$var wire 1 ) S1 $end
$var wire 1 @ lin1 $end
$var wire 1 A lin0 $end
$var wire 1 < Y $end
$scope module selec0 $end
$var wire 1 ; D0 $end
$var wire 1 : D1 $end
$var wire 1 + S $end
$var wire 1 A Y $end
$upscope $end
$scope module selec1 $end
$var wire 1 : D0 $end
$var wire 1 ; D1 $end
$var wire 1 + S $end
$var wire 1 @ Y $end
$upscope $end
$scope module selec2 $end
$var wire 1 A D0 $end
$var wire 1 @ D1 $end
$var wire 1 ) S $end
$var wire 1 < Y $end
$upscope $end
$upscope $end
$scope module selec2 $end
$var wire 1 = D0 $end
$var wire 1 < D1 $end
$var wire 1 ' S $end
$var wire 1 # Y $end
$upscope $end
$upscope $end
$upscope $end
$scope module sel82 $end
$var wire 1 ( A $end
$var wire 1 * B $end
$var wire 1 , C $end
$var wire 1 B DG $end
$var wire 1 C DV $end
$var wire 1 ! Y $end
$scope module select8t2 $end
$var wire 1 C D0 $end
$var wire 1 B D1 $end
$var wire 1 B D2 $end
$var wire 1 B D3 $end
$var wire 1 B D4 $end
$var wire 1 C D5 $end
$var wire 1 C D6 $end
$var wire 1 B D7 $end
$var wire 1 , S0 $end
$var wire 1 * S1 $end
$var wire 1 ( S2 $end
$var wire 1 D lin1 $end
$var wire 1 E lin0 $end
$var wire 1 ! Y $end
$scope module selec0 $end
$var wire 1 C D0 $end
$var wire 1 B D1 $end
$var wire 1 B D2 $end
$var wire 1 B D3 $end
$var wire 1 , S0 $end
$var wire 1 * S1 $end
$var wire 1 F lin1 $end
$var wire 1 G lin0 $end
$var wire 1 E Y $end
$scope module selec0 $end
$var wire 1 C D0 $end
$var wire 1 B D1 $end
$var wire 1 , S $end
$var wire 1 G Y $end
$upscope $end
$scope module selec1 $end
$var wire 1 B D0 $end
$var wire 1 B D1 $end
$var wire 1 , S $end
$var wire 1 F Y $end
$upscope $end
$scope module selec2 $end
$var wire 1 G D0 $end
$var wire 1 F D1 $end
$var wire 1 * S $end
$var wire 1 E Y $end
$upscope $end
$upscope $end
$scope module selec1 $end
$var wire 1 B D0 $end
$var wire 1 C D1 $end
$var wire 1 C D2 $end
$var wire 1 B D3 $end
$var wire 1 , S0 $end
$var wire 1 * S1 $end
$var wire 1 H lin1 $end
$var wire 1 I lin0 $end
$var wire 1 D Y $end
$scope module selec0 $end
$var wire 1 B D0 $end
$var wire 1 C D1 $end
$var wire 1 , S $end
$var wire 1 I Y $end
$upscope $end
$scope module selec1 $end
$var wire 1 C D0 $end
$var wire 1 B D1 $end
$var wire 1 , S $end
$var wire 1 H Y $end
$upscope $end
$scope module selec2 $end
$var wire 1 I D0 $end
$var wire 1 H D1 $end
$var wire 1 * S $end
$var wire 1 D Y $end
$upscope $end
$upscope $end
$scope module selec2 $end
$var wire 1 E D0 $end
$var wire 1 D D1 $end
$var wire 1 ( S $end
$var wire 1 ! Y $end
$upscope $end
$upscope $end
$upscope $end
$upscope $end
$enddefinitions $end
#0
$dumpvars
xI
xH
xG
0F
xE
xD
1C
0B
1A
0@
0?
1>
0=
1<
1;
0:
x9
x8
x7
x6
05
04
13
12
11
x0
x/
1.
0-
x,
0+
x*
0)
x(
0'
0&
0%
x$
0#
x"
x!
$end
#1
1#
1&
03
1%
1=
0<
1-
0.
01
02
14
1?
0>
0A
1@
1+
#2
1%
1#
11
12
0?
1>
1A
0@
14
1=
0<
0+
1)
#3
0%
0#
0&
04
0=
1<
0-
1.
01
02
13
1?
0>
0A
1@
1+
#4
11
12
0?
1>
1A
0@
13
0=
1<
1&
1%
1#
0+
0)
1'
#5
0%
0#
0&
03
1=
0<
1-
0.
01
02
14
1?
0>
0A
1@
1+
#6
0#
11
12
0?
1>
1A
0@
14
1=
0<
0+
1)
#7
1#
1&
04
1%
0=
1<
0-
1.
01
02
13
1?
0>
0A
1@
1+
#10
11
12
0?
1>
1A
0@
13
0=
1<
0&
0%
0#
0+
0)
0'
#11
1#
1&
03
1%
1=
0<
1-
0.
01
02
14
1?
0>
0A
1@
1+
#12
1%
1#
11
12
0?
1>
1A
0@
14
1=
0<
0+
1)
#13
0%
0#
0&
04
0=
1<
0-
1.
01
02
13
1?
0>
0A
1@
1+
#14
11
12
0?
1>
1A
0@
13
0=
1<
1&
1%
1#
0+
0)
1'
#15
0%
0#
0&
03
1=
0<
1-
0.
01
02
14
1?
0>
0A
1@
1+
#16
0#
11
12
0?
1>
1A
0@
14
1=
0<
0+
1)
#17
1#
1&
04
1%
0=
1<
0-
1.
01
02
13
1?
0>
0A
1@
1+
#20
11
12
0?
1>
1A
0@
13
0=
1<
0&
0%
0#
0+
0)
0'
#21
1#
1&
03
1%
1=
0<
1-
0.
01
02
14
1?
0>
0A
1@
1+
#22
1%
1#
11
12
0?
1>
1A
0@
14
1=
0<
0+
1)
#23
0%
0#
0&
04
0=
1<
0-
1.
01
02
13
1?
0>
0A
1@
1+
#24
11
12
0?
1>
1A
0@
13
0=
1<
1&
1%
1#
0+
0)
1'
#25
0%
0#
0&
03
1=
0<
1-
0.
01
02
14
1?
0>
0A
1@
1+
#26
0#
11
12
0?
1>
1A
0@
14
1=
0<
0+
1)
#27
1#
1&
04
1%
0=
1<
0-
1.
01
02
13
1?
0>
0A
1@
1+
#30
1"
1!
19
1E
0D
1$
16
17
1G
0I
1H
1/
00
08
0,
0*
0(
#31
0"
0!
0$
09
0E
1D
0/
10
06
07
18
0G
1I
0H
1,
#32
16
17
1G
0I
1H
18
1D
0,
1*
#33
08
0D
00
06
07
0G
1I
0H
1,
#34
19
1E
0!
16
17
1G
0I
1H
1/
0D
0,
0*
1(
#35
1!
1$
09
1"
0E
1D
0/
10
06
07
18
0G
1I
0H
1,
#36
1"
1!
16
17
1G
0I
1H
18
1D
0,
1*
#37
0"
0!
0$
08
0D
00
06
07
0G
1I
0H
1,
#40
1"
1!
19
1E
1$
16
17
1G
0I
1H
1/
0D
0,
0*
0(
#41
0"
0!
0$
09
0E
1D
0/
10
06
07
18
0G
1I
0H
1,
#42
16
17
1G
0I
1H
18
1D
0,
1*
#43
08
0D
00
06
07
0G
1I
0H
1,
#44
19
1E
0!
16
17
1G
0I
1H
1/
0D
0,
0*
1(
#45
1!
1$
09
1"
0E
1D
0/
10
06
07
18
0G
1I
0H
1,
#46
1"
1!
16
17
1G
0I
1H
18
1D
0,
1*
#47
0"
0!
0$
08
0D
00
06
07
0G
1I
0H
1,
#50
1"
1!
19
1E
1$
16
17
1G
0I
1H
1/
0D
0,
0*
0(
#51
0"
0!
0$
09
0E
1D
0/
10
06
07
18
0G
1I
0H
1,
#52
16
17
1G
0I
1H
18
1D
0,
1*
#53
08
0D
00
06
07
0G
1I
0H
1,
#54
19
1E
0!
16
17
1G
0I
1H
1/
0D
0,
0*
1(
#55
1!
1$
09
1"
0E
1D
0/
10
06
07
18
0G
1I
0H
1,
#56
1"
1!
16
17
1G
0I
1H
18
1D
0,
1*
#57
0"
0!
0$
08
0D
00
06
07
0G
1I
0H
1,
